<?xml version="1.0" standalone="no"?>
<!DOCTYPE svg PUBLIC "-//W3C//DTD SVG 1.1//EN" "http://www.w3.org/Graphics/SVG/1.1/DTD/svg11.dtd" >
<svg xmlns="http://www.w3.org/2000/svg">
<metadata></metadata>
<defs>
<font id="supermarketregular" horiz-adv-x="0" >
<font-face units-per-em="2048" ascent="1638" descent="-410" />
<missing-glyph horiz-adv-x="566" />
<glyph unicode="&#x3b;&#x3b;For&#x20;Education&#x20;Used&#x20;Only&#x3b;&#x3b;" horiz-adv-x="1266" d="M767 499q-5 -40 -27 -61t-46 -31q-29 -11 -63 -13q-39 2 -69 15q-13 6 -25 14.5t-21.5 21.5t-15.5 31t-6 41v95q0 44 21 68.5t47 35.5q30 13 69 15q35 -2 63 -13q24 -10 46 -30.5t27 -58.5h83q-3 19 -13 50.5t-34 61.5t-65.5 52t-106.5 22q-41 0 -71.5 -9t-54 -23 t-39.5 -32.5t-26 -37.5q-25 -45 -30 -101v-95q5 -57 30 -101q10 -19 26 -37t39.5 -32.5t54 -23t71.5 -8.5q65 0 106.5 21.5t65.5 51.5t34 61t13 50h-83zM630 30q-111 0 -208 42t-170 115q-72 72 -114 169t-42 208q0 112 42 209t114 170q73 73 170 115t208 42 q112 0 208.5 -42t169.5 -115t115 -170t42 -209q0 -111 -42 -208t-115 -169q-73 -73 -169.5 -115t-208.5 -42zM325 870q-126 -124 -126 -306q0 -89 33 -167t93 -138q59 -59 137 -92.5t168 -33.5q91 0 168.5 33.5t136.5 92.5q60 60 93.5 138t33.5 167q0 91 -33.5 169 t-93.5 137q-59 59 -136.5 93t-168.5 34q-90 0 -168 -34t-137 -93z" />
<glyph unicode="&#x3b;&#x3b;Registered&#x3b;&#x3b;" horiz-adv-x="1296" d="M654 30q-111 0 -208 42t-170 115q-72 72 -114 169t-42 208q0 112 42 209t114 170q73 73 170 115t208 42q112 0 208.5 -42t169.5 -115t115 -170t42 -209q0 -111 -42 -208t-115 -169q-73 -73 -169.5 -115t-208.5 -42zM349 870q-126 -124 -126 -306q0 -89 33 -167t93 -138 q59 -59 137 -92.5t168 -33.5q91 0 168.5 33.5t136.5 92.5q60 60 93.5 138t33.5 167q0 91 -33.5 169t-93.5 137q-59 59 -136.5 93t-168.5 34q-90 0 -168 -34t-137 -93zM781 575q20 18 31.5 43.5t11.5 55.5t-11.5 55.5t-31 44.5t-45.5 29.5t-56 10.5h-194v-498h65v219h135 q21 0 35 -7.5t22 -18t11.5 -22t4.5 -18.5v-153h65v153q0 43 -13 68t-30 38zM551 595v159h129q32 0 55.5 -23t23.5 -57q0 -33 -23.5 -56t-55.5 -23h-129z" />
<glyph unicode="&#x3b;&#x3b;Trademark&#x3b;&#x3b;" horiz-adv-x="1370" d="M1170 1201v-713h-97v444l-149 -343h-90l-152 343v-444h-97v620h-186v-619h-96v619h-188v93h561l205 -465l200 465h89z" />
<glyph unicode="&#x3b;&#x3b;Multiply&#x3b;&#x3b;" horiz-adv-x="982" d="M771 222l-270 270l-270 -270l-119 120l269 269l-269 270l119 119l270 -269l270 269l119 -119l-270 -270l270 -269z" />
<glyph unicode="&#x3b;&#x3b;Divide&#x3b;&#x3b;" horiz-adv-x="1189" d="M1070 654v-160h-932v160h932zM604 784q-23 0 -42.5 8.5t-34 23t-23 34.5t-8.5 43q0 22 8.5 41.5t23 34t34 23t42.5 8.5q22 0 42 -8.5t34.5 -23t23 -34t8.5 -41.5q0 -23 -8.5 -43t-23 -34.5t-34.5 -23t-42 -8.5zM604 170q-23 0 -42.5 8.5t-34 23.5t-23 34.5t-8.5 41.5 t8.5 42t23 34.5t34 23t42.5 8.5q22 0 42 -8.5t34.5 -23t23 -34.5t8.5 -42t-8.5 -41.5t-23 -34.5t-34.5 -23.5t-42 -8.5z" />
<glyph unicode="&#x2018;&#x2018;" horiz-adv-x="638" d="M308 1177q4 -19 -5 -30q-4 -5 -10 -9q-41 -20 -65 -39t-36 -34t-15.5 -25.5t-3.5 -12.5q22 0 42 -8.5t35 -23t23.5 -34t8.5 -41.5t-8.5 -41.5t-23.5 -34t-35 -23t-42 -8.5q-23 0 -42.5 8.5t-34 23t-23 34t-9.5 41.5q-2 52 12 92.5t36 71t49 51.5t51.5 35t43 20.5 t24.5 8.5q9 2 14.5 -0.5t8.5 -7.5q4 -5 5 -14zM564 1177q4 -19 -5 -30q-4 -5 -10 -9q-41 -20 -65 -39t-36 -34t-15.5 -25.5t-3.5 -12.5q22 0 42 -8.5t35 -23t23.5 -34t8.5 -41.5t-8.5 -41.5t-23.5 -34t-35 -23t-42 -8.5q-23 0 -42.5 8.5t-34 23t-23 34t-9.5 41.5 q-2 52 12 92.5t36 71t49 51.5t51.5 35t43 20.5t24.5 8.5q9 2 14.5 -0.5t8.5 -7.5q4 -5 5 -14z" />
<glyph unicode="&#x2019;&#x2019;" horiz-adv-x="672" d="M348 851q-3 11 -1 18t6 12t10 9q41 20 65 39t36 34t15.5 25.5t3.5 12.5q-23 0 -42.5 8.5t-34.5 23t-23.5 34t-8.5 41.5t8.5 41.5t23.5 34t34.5 23t42.5 8.5q22 0 42 -8.5t34.5 -23t23 -34t9.5 -41.5q2 -52 -12 -92.5t-36 -71t-49 -51.5t-51.5 -35t-43 -20.5t-24.5 -8.5 q-9 -3 -14.5 0t-8.5 8q-4 5 -5 14zM92 851q-3 11 -1 18t6 12t10 9q41 20 65 39t36 34t15.5 25.5t3.5 12.5q-23 0 -42.5 8.5t-34.5 23t-23.5 34t-8.5 41.5t8.5 41.5t23.5 34t34.5 23t42.5 8.5q22 0 42 -8.5t34.5 -23t23 -34t9.5 -41.5q1 -52 -12.5 -92.5t-35.5 -71t-49 -51.5 t-51.5 -35t-43 -20.5t-24.5 -8.5q-9 -3 -14.5 0t-8.5 8q-4 5 -5 14z" />
<glyph unicode="&#xe24;&#xe32;" horiz-adv-x="1385" d="M1055 1081q6 0 29.5 -1.5t55.5 -10t67.5 -27.5t65 -54t49 -89t19.5 -133v-765h-161v765q-2 43 -16 77q-6 15 -15 29t-22 25t-30.5 17.5t-40.5 6.5q-40 0 -67.5 -9.5t-45.5 -21.5t-28 -23.5t-15 -16.5q15 -33 23 -64t11.5 -56t4.5 -42.5t1 -22.5v-1135h-160v1135 q0 64 -17.5 107.5t-44.5 72t-59.5 43.5t-61.5 22.5t-50.5 8.5t-27.5 1q-49 0 -86 -11t-64.5 -29t-46 -41t-30.5 -47q-28 -56 -32 -127v-515h99v-150h-259v822q33 61 72 104t80.5 71.5t82 45t75 25t60.5 10.5t39 2h10q100 -3 169 -30t116 -69q12 12 33 29t52.5 33t73 27 t92.5 11z" />
<glyph unicode="&#xe26;&#xe32;" horiz-adv-x="1498" d="M1112 1082q6 0 29.5 -1.5t55.5 -10t67.5 -27.5t65 -54t49 -89t19.5 -133v-765h-161v765q-2 43 -16 77q-6 15 -15 29t-22 25t-30.5 17.5t-40.5 6.5q-40 0 -67.5 -9.5t-45.5 -21.5t-28 -23.5t-15 -16.5q15 -33 23 -64t11.5 -56t4.5 -42.5t1 -22.5v-1135h-160v1135 q0 64 -17.5 107.5t-44.5 72t-59.5 43.5t-61.5 22.5t-50.5 8.5t-27.5 1q-49 0 -86 -11t-64.5 -29t-46 -41t-30.5 -47q-28 -56 -32 -127v-665h-259v150h99v672q32 61 71.5 104t81 71.5t82 45t75 25t60.5 10.5t39 2h10q100 -3 169 -30t116 -69q12 12 33 29t52.5 33t73 27 t92.5 11z" />
<glyph unicode="&#xd;" horiz-adv-x="579" />
<glyph unicode=" "  horiz-adv-x="566" />
<glyph unicode="&#x09;" horiz-adv-x="566" />
<glyph unicode="&#xa0;" horiz-adv-x="566" />
<glyph unicode="!" horiz-adv-x="504" d="M374 -205q0 -52 -34 -87q-35 -35 -85 -35q-51 0 -86 35q-34 35 -34 87q0 51 34 85q35 35 86 35q47 0 84 -35q35 -35 35 -85zM324 0h-135l-56 1261h247z" />
<glyph unicode="&#x22;" horiz-adv-x="575" d="M259 1201l-23 -397h-113l-24 397h160zM473 1201l-23 -397h-113l-24 397h160z" />
<glyph unicode="#" horiz-adv-x="1105" d="M837 713l-50 -208h175v-150h-225l-63 -213h-169l63 213h-179l-63 -213h-169l63 213h-133v150h182l50 208h-175v149h225l63 212h169l-63 -212h179l63 212h169l-63 -212h133v-150zM668 713h-180l-50 -208h180z" />
<glyph unicode="$" horiz-adv-x="994" d="M562 679q57 -26 113.5 -55.5t101.5 -71t73 -99.5t28 -141v-9q0 -75 -24.5 -131.5t-67 -95.5t-100 -61.5t-124.5 -29.5v-166h-160v168q-84 11 -143.5 36t-98.5 51q-46 30 -76 65l106 104q30 -29 86 -58t126 -43v422q-50 23 -96 53t-81 73.5t-56.5 103.5t-21.5 144 q0 70 20.5 123.5t55.5 91t81.5 60.5t97.5 34v171h160v-166q53 -7 96 -21.5t74 -29.5q36 -18 65 -38l82 -56l-89 -134l-67 44q-34 23 -78 40.5t-83 28.5v-407zM309 938q0 -60 25.5 -100.5t67.5 -72.5v310q-42 -20 -67.5 -55.5t-25.5 -81.5zM562 138q72 15 112 59t40 106 q0 37 -11.5 66t-32 51.5t-48.5 40.5t-60 33v-356z" />
<glyph unicode="%" horiz-adv-x="1263" d="M970 1330l-531 -1516h-159l530 1516h160zM309 1075q39 0 73 -15t59.5 -40.5t40.5 -59.5t15 -73t-15 -73t-40.5 -59.5t-59.5 -40t-73 -14.5t-73 14.5t-59.5 40t-40 59.5t-14.5 73t14.5 73t40 59.5t59.5 40.5t73 15zM309 825q26 0 44.5 18t18.5 44q0 27 -18.5 44.5 t-44.5 17.5t-44 -17.5t-18 -44.5q0 -26 18 -44t44 -18zM940 444q39 0 73 -14.5t59.5 -40t40 -59.5t14.5 -73t-14.5 -73t-40 -59.5t-59.5 -40t-73 -14.5t-73 14.5t-59.5 40t-40 59.5t-14.5 73t14.5 73t40 59.5t59.5 40t73 14.5zM940 195q26 0 44.5 18t18.5 44t-18.5 44 t-44.5 18t-44 -18t-18 -44t18 -44t44 -18z" />
<glyph unicode="&#x26;" horiz-adv-x="1251" d="M1008 -1l-175 198q-21 -21 -44.5 -42t-46.5 -41t-47 -36.5t-48 -32.5q-24 -15 -49 -27t-52 -23q-26 -10 -52 -15.5t-53 -7.5q-8 -1 -17 -1.5t-17 -0.5q-47 0 -96 17q-31 11 -59.5 26.5t-52.5 36.5t-44.5 46t-34.5 54q-30 58 -38 127q-1 8 -1 16v16q0 28 4 54.5t14 51.5 q11 33 27 62.5t36 56.5t44 52.5t51 48.5q27 25 56 48.5t55 44.5q-25 26 -46.5 52t-38.5 55q-17 26 -27 56.5t-13 62.5q-4 51 14 100q17 51 47 88q17 19 36.5 35t40.5 27q22 12 47 19t51 9t51.5 -1.5t48.5 -11.5t43.5 -21t37.5 -27q16 -15 31 -34.5t25 -40.5q22 -45 26 -92 q5 -50 -7 -93q-7 -21 -15 -41t-21 -37q-23 -39 -55 -69q-17 -17 -34.5 -34t-34.5 -32l255 -289l131 151l118 -88l-150 -172q63 -72 130.5 -150.5t130.5 -150.5h-182zM431 584l-46 -36q-40 -31 -78 -72q-17 -19 -32 -40t-26 -42q-12 -23 -16 -47t-2 -50q9 -80 64 -137 q56 -53 133 -47q38 4 77 20.5t76 43.5q36 28 76.5 62.5t74.5 68.5l-267 303zM594 992q-5 42 -35 71q-31 27 -72 25q-39 -6 -68 -42q-30 -37 -25 -87q2 -18 10.5 -38t21.5 -38q11 -17 24.5 -34.5t30.5 -36.5q20 19 40.5 39t39.5 40q37 40 33 100v1z" />
<glyph unicode="'" horiz-adv-x="304" d="M229 1201l-23 -397h-113l-24 397h160z" />
<glyph unicode="(" horiz-adv-x="667" d="M597 -309q-92 0 -177.5 31t-151 86.5t-105 133.5t-39.5 174v998q0 97 40 170t106.5 122.5t151.5 75t175 27.5v-150q-54 0 -109.5 -14.5t-100.5 -44.5t-74 -76.5t-29 -109.5v-998q0 -63 29 -114t74.5 -86.5t101 -55t108.5 -19.5v-150z" />
<glyph unicode=")" horiz-adv-x="708" d="M101 -159q53 0 108.5 19.5t101 55t74.5 86.5t29 114v998q0 63 -29 109.5t-74 76.5t-100.5 44.5t-109.5 14.5v150q90 -2 175 -27.5t151.5 -75t106.5 -122.5t40 -170v-998q0 -96 -39.5 -174t-105 -133.5t-151 -86.5t-177.5 -31v150z" />
<glyph unicode="*" horiz-adv-x="719" d="M631 1006h-126l89 -89l-86 -86l-89 90v-127h-121v127l-89 -90l-86 86l90 89h-127v121h127l-90 89l86 86l89 -89v126h121v-126l89 89l86 -86l-89 -89h126v-121z" />
<glyph unicode="+" horiz-adv-x="1196" d="M1052 460h-359v-359h-160v359h-359v160h359v359h160v-359h359v-160z" />
<glyph unicode="," horiz-adv-x="357" d="M157 134h144l-107 -401h-144z" />
<glyph unicode="-" horiz-adv-x="829" d="M742 620v-150h-675v150h675z" />
<glyph unicode="." horiz-adv-x="436" d="M221 0q-23 0 -42.5 8.5t-34 23t-23 34t-8.5 42.5q0 22 8.5 41.5t23 34.5t34 23.5t42.5 8.5q22 0 41.5 -8.5t34.5 -23.5t23.5 -34.5t8.5 -41.5q0 -23 -8.5 -42.5t-23.5 -34t-34.5 -23t-41.5 -8.5z" />
<glyph unicode="/" horiz-adv-x="1006" d="M90 -349l647 1849h160l-647 -1849h-160z" />
<glyph unicode="0" horiz-adv-x="998" d="M501 1260q76 0 134.5 -16.5t102.5 -44t75 -62t51 -70.5q48 -84 57 -192v-505q-9 -109 -57 -193q-20 -36 -51 -70.5t-75 -61.5t-102.5 -43.5t-134.5 -16.5q-77 0 -135.5 16.5t-102.5 43.5t-74.5 61.5t-50.5 70.5q-48 84 -57 193v505q9 108 57 192q20 36 50.5 70.5t74.5 62 t102.5 44t135.5 16.5zM761 875q0 42 -11 74t-29.5 56t-42 40t-47.5 27q-57 25 -130 28q-73 -3 -130 -28q-24 -11 -47.5 -27t-42 -40t-29.5 -56t-11 -74v-505q0 -44 11 -78t29.5 -58.5t42 -41.5t47.5 -28q57 -26 130 -29q73 3 130 29q24 11 47.5 28t42 41.5t29.5 58.5t11 78 v505z" />
<glyph unicode="1" horiz-adv-x="613" d="M509 1249v-1249h-160v913q-46 -33 -109.5 -54.5t-151.5 -24.5v160q6 0 27.5 1t50.5 8.5t61.5 22.5t59.5 43.5t44.5 72t17.5 107.5h160z" />
<glyph unicode="2" horiz-adv-x="916" d="M745 703q-94 -130 -178 -241q-36 -47 -72.5 -95t-69.5 -90.5t-60.5 -75.5t-45.5 -51h485v-150h-717v150q156 159 278 303q52 61 102 125.5t89.5 124t63.5 111.5t24 88q0 41 -15.5 77t-42.5 63t-63 42.5t-77 15.5t-77 -15.5t-63 -42.5t-42.5 -63t-15.5 -77h-161 q0 74 28 139.5t76.5 114t114 76.5t139.5 28q75 0 140 -28t114 -76.5t77 -114t28 -139.5q0 -55 -15.5 -105.5t-43.5 -93.5z" />
<glyph unicode="3" horiz-adv-x="939" d="M699 622q61 -49 97 -121t36 -157q0 -74 -28.5 -139.5t-77 -114.5t-114 -77t-139.5 -28t-139.5 28t-114.5 77t-77 114.5t-28 139.5h161q0 -41 15.5 -77t42.5 -63t63 -42.5t77 -15.5t77 15.5t63 42.5t42.5 63t15.5 77q0 40 -15 75t-41.5 61.5t-63 42.5t-78.5 19v161 q41 0 77 15.5t63 42.5t42.5 63t15.5 77t-15.5 77t-42.5 63t-63 42.5t-77 15.5t-77 -15.5t-63 -42.5t-42.5 -63t-15.5 -77h-161q0 74 28 139.5t76.5 114t114 77t139.5 28.5q75 0 140 -28.5t114 -77t77 -114t28 -139.5q0 -85 -35.5 -157t-96.5 -122z" />
<glyph unicode="4" horiz-adv-x="1042" d="M807 308h146v-150h-146v-158h-160v158h-606v150l607 942h159v-942zM234 308h414v648z" />
<glyph unicode="5" horiz-adv-x="989" d="M515 844q76 0 134.5 -16.5t102.5 -44t75 -62t51 -70.5q48 -84 57 -192v-88q-9 -109 -57 -193q-20 -36 -51 -71t-75 -62t-102.5 -43.5t-134.5 -16.5q-104 0 -175 29.5t-117.5 73.5t-72.5 95t-38 94h162q23 -50 63 -76.5t80 -38.5q47 -14 98 -16q73 3 130 28 q24 10 47.5 26.5t42 40t29.5 56t11 74.5v88q0 44 -11 77.5t-29.5 58.5t-42 42t-47.5 28q-57 26 -130 29q-67 -3 -122 -26q-23 -10 -46 -25t-42 -36.5t-32 -51t-17 -68.5h-161v764h750v-160h-590v-322q46 33 109.5 54t150.5 21z" />
<glyph unicode="6" horiz-adv-x="1002" d="M82 459q1 19 5 41q3 19 9.5 43.5t17.5 53.5q2 4 4.5 10.5t12 27t28 60.5t51 111.5t82.5 179.5t122 264h158l-192 -420q56 14 122 14q76 0 135 -16.5t103 -44t74.5 -62t50.5 -70.5q48 -84 58 -192v-88q-10 -109 -58 -193q-20 -36 -50.5 -71t-74.5 -62t-103 -43.5 t-135 -16.5q-77 0 -135.5 16.5t-102.5 43.5t-74.5 62t-50.5 71q-48 84 -57 193v88zM763 459q0 44 -11.5 77.5t-30 58.5t-42 42t-47.5 28q-57 26 -130 29q-73 -3 -130 -29q-24 -11 -47.5 -28t-42 -42t-29.5 -58.5t-11 -77.5v-88q0 -42 11 -74t29.5 -55.5t42 -40t47.5 -26.5 q57 -25 130 -28q73 3 130 28q24 10 47.5 26.5t42 40t30 55.5t11.5 74v88z" />
<glyph unicode="7" horiz-adv-x="881" d="M829 1251v-150l-429 -1101h-160l429 1101h-616v150h776z" />
<glyph unicode="8" horiz-adv-x="916" d="M688 622q61 -49 97 -121t36 -157q0 -74 -28.5 -139.5t-77 -114.5t-114 -77t-139.5 -28t-139.5 28t-114.5 77t-77 114.5t-28 139.5q0 85 36 157t96 121q-60 50 -96 122t-36 157q0 74 28 139.5t77 114t114 77t140 28.5q74 0 139.5 -28.5t114 -77t76.5 -114t28 -139.5 q0 -85 -35.5 -157t-96.5 -122zM264 901q0 -41 15.5 -77t42.5 -63t63 -42.5t77 -15.5t77 15.5t63 42.5t42.5 63t15.5 77t-15.5 77t-42.5 63t-63 42.5t-77 15.5t-77 -15.5t-63 -42.5t-42.5 -63t-15.5 -77zM462 146q41 0 77.5 15.5t63.5 42.5t42.5 63t15.5 77t-15.5 77 t-42.5 63t-63.5 42.5t-77.5 15.5t-77 -15.5t-63 -42.5t-42.5 -63t-15.5 -77t15.5 -77t42.5 -63t63 -42.5t77 -15.5z" />
<glyph unicode="9" horiz-adv-x="1032" d="M941 786q-1 -19 -5 -41q-3 -19 -9 -44t-17 -53q-2 -4 -4.5 -10t-12 -26t-28 -59.5t-51.5 -110.5t-82.5 -178.5t-121.5 -263.5h-158l192 415q-56 -14 -122 -14q-77 0 -135.5 16.5t-102.5 43.5t-75 61.5t-51 70.5q-48 84 -57 193v88q9 108 57 193q20 36 51 70.5t75 62 t102.5 44t135.5 16.5q76 0 134.5 -16.5t102.5 -44t74.5 -62t50.5 -70.5q48 -85 57 -193v-88zM261 786q0 -44 11 -78t29.5 -58.5t42 -41.5t47.5 -28q57 -26 131 -29q73 3 130 29q24 11 47.5 28t42 41.5t29.5 58.5t11 78v88q0 42 -11 74t-29.5 56t-42 40t-47.5 27 q-57 25 -130 28q-74 -3 -131 -28q-24 -11 -47.5 -27t-42 -40t-29.5 -56t-11 -74v-88z" />
<glyph unicode=":" horiz-adv-x="367" d="M188 784q-23 0 -42.5 8.5t-34 23.5t-23 34.5t-8.5 41.5t8.5 42t23 34.5t34 23t42.5 8.5q22 0 41.5 -8.5t34.5 -23t23.5 -34.5t8.5 -42t-8.5 -41.5t-23.5 -34.5t-34.5 -23.5t-41.5 -8.5zM183 352q22 0 42 -8.5t34.5 -23t23 -34.5t8.5 -42t-8.5 -41.5t-23 -34.5 t-34.5 -23.5t-42 -8.5q-23 0 -42.5 8.5t-34 23.5t-23 34.5t-8.5 41.5t8.5 42t23 34.5t34 23t42.5 8.5z" />
<glyph unicode=";" horiz-adv-x="375" d="M199 784q-22 0 -41.5 8.5t-34.5 23t-23.5 34t-8.5 42.5q0 22 8.5 41.5t23.5 34.5t34.5 23.5t41.5 8.5t42 -8.5t35 -23.5t23.5 -34.5t8.5 -41.5q0 -23 -8.5 -42.5t-23.5 -34t-35 -23t-42 -8.5zM65 -12q-3 11 -1 18t6 12t10 9q41 20 65 39t36 34t15.5 25.5t3.5 12.5 q-23 0 -42.5 8.5t-34.5 23t-23.5 34t-8.5 41.5t8.5 41.5t23.5 34t34.5 23t42.5 8.5q22 0 42 -8.5t34.5 -23t23 -34t9.5 -41.5q1 -52 -12.5 -92.5t-35.5 -71t-49 -51.5t-51.5 -35t-43 -20.5t-24.5 -8.5q-9 -3 -14.5 0t-8.5 8q-4 5 -5 14z" />
<glyph unicode="&#x3c;" horiz-adv-x="1166" d="M1054 117l-941 325v285l941 326v-175l-820 -292l820 -296v-173z" />
<glyph unicode="=" horiz-adv-x="912" d="M93 462h716v-150h-716v150zM93 782h716v-150h-716v150z" />
<glyph unicode="&#x3e;" horiz-adv-x="1116" d="M98 290l820 296l-820 292v175l941 -326v-285l-941 -325v173z" />
<glyph unicode="?" horiz-adv-x="812" d="M574 121q0 -52 -35 -87q-34 -34 -84 -34q-51 0 -86 35q-34 34 -34 86t34 85q36 36 86 36q46 0 84 -36q35 -33 35 -85zM373 321v267q0 38 8.5 70.5t24 61t37 54.5t46.5 51t40 45t23 37t10.5 33t2.5 33q0 41 -13.5 71.5t-37 51t-54.5 30.5t-65 10q-64 0 -98.5 -12 t-50.5 -26q-18 -17 -21 -37h-136q-1 1 -1 3q-1 2 -1 9q0 11 3 31.5t13 44t30 48t54.5 44.5t85 32.5t122.5 12.5q75 0 127.5 -16.5t87.5 -43t55.5 -59.5t30.5 -66t12.5 -62t2.5 -48v-19q0 -22 -4 -45.5t-15 -50.5t-31 -58.5t-51 -69.5q-29 -35 -44 -64.5t-23 -50.5 q-9 -25 -10 -45v-267h-160z" />
<glyph unicode="@" horiz-adv-x="1437" d="M936 428q-3 -10 -5 -19.5t-2 -17.5q0 -29 37 -29q33 0 67 25t61.5 67t45.5 98.5t18 119.5q0 94 -34 167t-91.5 123t-134 76t-160.5 26q-102 0 -188 -38t-148.5 -104.5t-97.5 -157t-35 -194.5q0 -105 37 -194.5t101.5 -154t151.5 -101t188 -36.5q57 0 112 11t103.5 32 t90 51.5t71.5 69.5h150q-37 -66 -94.5 -120t-128 -92t-149.5 -59t-159 -21q-132 0 -245.5 48t-197 132t-131.5 197t-48 243q0 128 49 240t133 195.5t196 132t239 48.5q115 0 218.5 -38t180.5 -105.5t122.5 -160.5t45.5 -203q0 -71 -18 -133.5t-49 -115t-71 -94t-83.5 -70 t-88.5 -44t-84 -15.5q-43 0 -75 26t-37 73q-19 -18 -41.5 -36t-48 -32t-53 -22.5t-56.5 -8.5q-54 0 -97.5 21t-74 57t-47 85t-16.5 105q0 82 26.5 161.5t75.5 142.5t118 101.5t155 38.5q55 0 102.5 -25.5t73.5 -83.5l21 78h141zM522 482q0 -56 25 -88t81 -32q48 0 87 27 t67.5 68.5t44 91t15.5 95.5q0 27 -6 51t-17.5 42.5t-29 29.5t-41.5 11q-55 0 -97 -24.5t-70.5 -66t-43.5 -95t-15 -110.5z" />
<glyph unicode="A" horiz-adv-x="1031" d="M511 1260q76 0 134.5 -16.5t102.5 -44t75 -62t51 -70.5q48 -84 57 -192v-875h-160v531h-520v-531h-160v875q9 108 57 192q20 36 50.5 70.5t74.5 62t102.5 44t135.5 16.5zM771 681v194q0 42 -11 74t-29.5 56t-42 40t-47.5 27q-57 25 -130 28q-73 -3 -130 -28 q-24 -11 -47.5 -27t-42 -40t-29.5 -56t-11 -74v-194h520z" />
<glyph unicode="B" horiz-adv-x="993" d="M793 618q61 -49 97 -111.5t36 -147.5q0 -74 -28.5 -139.5t-78 -114.5t-115 -77t-138.5 -28h-481v1240h481q75 0 140 -26.5t114 -73t77 -110.5t28 -138q0 -84 -35.5 -153.5t-96.5 -120.5zM567 150q41 0 77 17.5t63 46.5t42.5 66.5t15.5 78.5q0 40 -15 74t-41.5 59.5 t-63 40.5t-78.5 18h-322v-401h322zM567 696q41 0 77 15t63 41.5t42.5 62.5t15.5 77t-16 77t-43 63t-63 42.5t-77 15.5h-321v-394h322z" />
<glyph unicode="C" horiz-adv-x="1024" d="M934 397v-28q-9 -108 -57 -192q-20 -36 -51 -70.5t-75 -61.5t-102.5 -43.5t-134.5 -16.5q-77 0 -135.5 16.5t-102.5 43.5t-74.5 61.5t-50.5 70.5q-48 84 -57 192v505q9 108 57 193q20 36 50.5 70.5t74.5 62t102.5 44t135.5 16.5q76 0 134.5 -16.5t102.5 -44t75 -62 t51 -70.5q48 -85 57 -193v-27h-160v27q0 42 -11 74.5t-29.5 56.5t-42 40t-47.5 27q-57 25 -130 28q-73 -3 -130 -28q-24 -11 -47.5 -27t-42 -40t-29.5 -56.5t-11 -74.5v-505q0 -44 11 -77.5t29.5 -58t42 -41.5t47.5 -28q57 -26 130 -29q73 3 130 29q24 11 47.5 28t42 41.5 t29.5 58t11 77.5v28h160z" />
<glyph unicode="D" horiz-adv-x="966" d="M96 0v1240h418q76 0 134.5 -16.5t102.5 -43.5t75 -61.5t51 -70.5q48 -84 57 -192v-472q-9 -108 -57 -192q-20 -36 -51 -70.5t-75 -61.5t-102.5 -43.5t-134.5 -16.5h-418zM256 1090v-940h258q73 3 130 29q24 11 47.5 28t42 41.5t29.5 58t11 77.5v472q0 44 -11 77.5 t-29.5 58t-42 41.5t-47.5 28q-57 26 -130 29h-258z" />
<glyph unicode="E" horiz-adv-x="939" d="M259 1090v-431h492v-150h-492v-359h661v-150h-821v1240h821v-150h-661z" />
<glyph unicode="F" horiz-adv-x="927" d="M249 0h-160v1240h821v-150h-661v-431h492v-150h-492v-509z" />
<glyph unicode="G" horiz-adv-x="1093" d="M824 847v27q0 42 -11 74t-29.5 56t-42 40t-47.5 27q-57 25 -130 28q-73 -3 -130 -28q-24 -11 -47.5 -27t-42 -40t-29.5 -56t-11 -74v-505q0 -44 11 -77.5t29.5 -58t42 -41.5t47.5 -28q57 -26 130 -29q73 3 130 29q24 11 47.5 28t42 41.5t29.5 58t11 77.5v161h-335v150 h495v-311q-9 -108 -57 -192q-20 -36 -51 -70.5t-75 -61.5t-102.5 -43.5t-134.5 -16.5q-77 0 -135.5 16.5t-102.5 43.5t-74.5 61.5t-50.5 70.5q-48 84 -57 192v505q9 108 57 193q20 36 50.5 70.5t74.5 62t102.5 44t135.5 16.5q76 0 134.5 -16.5t102.5 -44t75 -62t51 -70.5 q48 -85 57 -193v-27h-160z" />
<glyph unicode="H" horiz-adv-x="1081" d="M994 1240v-1240h-160v498h-585v-498h-160v1240h160v-592h585v592h160z" />
<glyph unicode="I" horiz-adv-x="458" d="M314 1240v-1240h-160v1240h160z" />
<glyph unicode="J" horiz-adv-x="531" d="M430 370q-9 -109 -57 -193q-20 -36 -51 -70.5t-75 -61.5t-102.5 -43.5t-134.5 -16.5v160q73 3 130 28q24 10 47.5 26.5t42 40t29.5 56t11 74.5v870h160v-870z" />
<glyph unicode="K" horiz-adv-x="1008" d="M300 625l625 -625h-226l-448 448v-448h-162v1250h162v-448l448 448h226z" />
<glyph unicode="L" horiz-adv-x="820" d="M814 0h-728v1261h160v-1111h568v-150z" />
<glyph unicode="M" horiz-adv-x="1216" d="M226 0h-160v1240h160l380 -821q97 207 192 412t189 409h160v-1240h-160v858l-292 -630h-177l-292 631v-859z" />
<glyph unicode="N" horiz-adv-x="1189" d="M1102 1240v-1240h-208l-648 1029v-1029h-159v1240h232l623 -1030v1030h160z" />
<glyph unicode="O" horiz-adv-x="1028" d="M517 1260q76 0 134.5 -16.5t102.5 -44t75 -62t51 -70.5q48 -84 57 -192v-505q-9 -109 -57 -193q-20 -36 -51 -70.5t-75 -61.5t-102.5 -43.5t-134.5 -16.5q-77 0 -135.5 16.5t-102.5 43.5t-74.5 61.5t-50.5 70.5q-48 84 -57 193v505q9 108 57 192q20 36 50.5 70.5t74.5 62 t102.5 44t135.5 16.5zM777 875q0 42 -11 74t-29.5 56t-42 40t-47.5 27q-57 25 -130 28q-73 -3 -130 -28q-24 -11 -47.5 -27t-42 -40t-29.5 -56t-11 -74v-505q0 -44 11 -78t29.5 -58.5t42 -41.5t47.5 -28q57 -26 130 -29q73 3 130 29q24 11 47.5 28t42 41.5t29.5 58.5t11 78 v505z" />
<glyph unicode="P" horiz-adv-x="959" d="M569 1240q75 0 140 -26.5t114 -73.5t77 -110.5t28 -138.5q0 -74 -28 -137.5t-77 -110t-114 -73t-140 -26.5h-321v-544h-160v1240h481zM569 694q41 0 77 15.5t63 42t43 62.5t16 77q0 42 -16 78t-43 63t-63 42.5t-77 15.5h-321v-396h321z" />
<glyph unicode="Q" horiz-adv-x="1112" d="M922 -11l-75 98q-47 -44 -118 -73t-174 -29q-77 0 -135.5 16.5t-102.5 43.5t-74.5 61.5t-50.5 70.5q-48 84 -57 193v505q9 108 57 192q20 36 50.5 70.5t74.5 62t102.5 44t135.5 16.5q76 0 134.5 -16.5t102.5 -44t75 -62t51 -70.5q48 -84 58 -192v-505q-1 -20 -5 -43 q-4 -20 -11 -45.5t-18 -54.5l107 -141zM555 135q35 1 70 9q30 7 64.5 22t63.5 43l-143 184l127 98q6 -8 17 -22q9 -12 23.5 -31t37.5 -48v485q0 42 -11 74t-29.5 56t-42 40t-47.5 27q-57 25 -130 28q-73 -3 -130 -28q-24 -11 -47.5 -27t-41.5 -40t-29 -56t-11 -74v-505 q0 -44 11 -78t29 -58.5t41.5 -41.5t47.5 -28q57 -26 130 -29z" />
<glyph unicode="R" horiz-adv-x="1025" d="M843 643q21 -16 40 -39t33.5 -54.5t23.5 -73.5t9 -95v-381h-161v381q-2 19 -10.5 46.5t-29 53.5t-54.5 44.5t-87 18.5h-338v-544h-161v1240h482q74 0 139.5 -26.5t114 -73.5t77 -110.5t28.5 -138.5t-28.5 -138t-77.5 -110zM590 694q41 0 77 15.5t63 42t42.5 62.5t15.5 77 q0 42 -15.5 78t-42.5 63t-63 42.5t-77 15.5h-321v-396h321z" />
<glyph unicode="S" horiz-adv-x="958" d="M793 977l-68 44q-25 16 -56 30.5t-62.5 25.5t-59.5 17t-46 6q-38 0 -72 -11.5t-60 -32.5t-41.5 -50t-15.5 -64q0 -58 24.5 -98.5t64.5 -71.5t91 -55t104.5 -49t104.5 -54t91 -69.5t64.5 -96t24.5 -132.5v-9q-1 -83 -31 -144t-81.5 -100.5t-120.5 -58.5t-147 -19 q-110 0 -187.5 24.5t-128.5 54.5q-59 34 -98 79l106 104q19 -19 51 -39t72.5 -36t87 -26t95.5 -10q50 0 90.5 12.5t69 35.5t43.5 54t15 69q0 55 -24.5 92t-64.5 64t-91 48t-104 44t-104 53t-91 74t-64.5 107t-24.5 153q0 87 31 147.5t81 98.5t113 55t127 17q66 0 120.5 -15 t94.5 -32q47 -20 84 -46l82 -56z" />
<glyph unicode="T" horiz-adv-x="897" d="M863 1090h-339v-1090h-160v1090h-333v150h832v-150z" />
<glyph unicode="U" horiz-adv-x="1101" d="M971 1240v-865q-9 -109 -57 -193q-20 -36 -51 -70.5t-75 -61.5t-102.5 -43.5t-134.5 -16.5q-97 0 -165.5 26t-115.5 66t-74.5 87.5t-42 90.5t-19 74.5t-4.5 40.5v865h161v-865q0 -42 11 -74.5t29.5 -56t42 -40t47.5 -26.5q57 -25 130 -28q73 3 130 28q24 10 47.5 26.5 t42 40t29.5 56t11 74.5v865h160z" />
<glyph unicode="V" horiz-adv-x="1093" d="M1021 1240q-42 -132 -88.5 -279.5t-96.5 -305.5t-102 -323.5t-105 -331.5h-168l-391 1240h168l307 -1015l308 1015h168z" />
<glyph unicode="W" horiz-adv-x="1520" d="M372 0q-44 178 -87 353.5t-82 336.5t-73 301.5t-60 248.5h165l224 -1015l225 1015h165l225 -1015l225 1015h165l-302 -1240h-176l-219 901l-220 -901h-175z" />
<glyph unicode="X" horiz-adv-x="1289" d="M740 624l482 -624h-203q-91 119 -186.5 242.5t-193.5 250.5q-98 -127 -193.5 -250.5t-186.5 -242.5h-203l482 624l-482 626h202l381 -495l381 495h202z" />
<glyph unicode="Y" horiz-adv-x="1062" d="M1008 1250l-401 -820v-430h-160v430l-404 820h203l280 -657l281 657h201z" />
<glyph unicode="Z" horiz-adv-x="1066" d="M971 1089l-709 -939h736v-150h-936v150l716 939h-716v150h909v-150z" />
<glyph unicode="[" horiz-adv-x="685" d="M597 1561v-150h-288v-1539h288v-150h-448v1839h448z" />
<glyph unicode="\" horiz-adv-x="1016" d="M737 -349l-647 1849h160l647 -1849h-160z" />
<glyph unicode="]" horiz-adv-x="611" d="M517 1561v-1839h-448v150h288v1539h-288v150h448z" />
<glyph unicode="^" horiz-adv-x="1088" d="M107 419l290 842h285l292 -842h-176l-257 721l-260 -721h-174z" />
<glyph unicode="_" horiz-adv-x="1120" d="M1033 -38v-160h-932v160h932z" />
<glyph unicode="`" horiz-adv-x="387" d="M75 1201h139l127 -315h-140z" />
<glyph unicode="a" horiz-adv-x="954" d="M872 0h-160v65q-46 -33 -109.5 -54t-150.5 -21q-77 0 -135.5 16.5t-102.5 43.5t-74.5 61.5t-50.5 70.5q-48 84 -57 193v180q9 108 57 192q20 36 50.5 70.5t74.5 62t102.5 44t135.5 16.5q87 0 150.5 -21t109.5 -54v65h160v-930zM452 140q73 3 130 29q24 11 47.5 28 t42 41.5t29.5 58.5t11 78v180q0 42 -11 74t-29.5 56t-42 40t-47.5 27q-57 25 -130 28q-73 -3 -130 -28q-24 -11 -47.5 -27t-42 -40t-29.5 -56t-11 -74v-180q0 -44 11 -78t29.5 -58.5t42 -41.5t47.5 -28q57 -26 130 -29z" />
<glyph unicode="b" horiz-adv-x="959" d="M68 1280h160v-415q46 33 109.5 54t150.5 21q76 0 134.5 -16.5t102.5 -44t75 -62t51 -70.5q48 -84 57 -192v-180q-9 -109 -57 -193q-20 -36 -51 -70.5t-75 -61.5t-102.5 -43.5t-134.5 -16.5q-87 0 -150.5 21t-109.5 54v-65h-160v1280zM228 375q0 -44 11 -78t29.5 -58.5 t42 -41.5t47.5 -28q57 -26 130 -29q72 3 129 29q24 11 47.5 28t42 41.5t29.5 58.5t11 78v180q0 42 -11 74t-29.5 56t-42 40t-47.5 27q-57 25 -129 28q-73 -3 -130 -28q-24 -11 -47.5 -27t-42 -40t-29.5 -56t-11 -74v-180z" />
<glyph unicode="c" horiz-adv-x="935" d="M881 340q-3 -23 -12.5 -58.5t-28 -74t-48.5 -77.5t-75 -70t-107 -50.5t-145 -19.5q-77 0 -135.5 16.5t-102.5 43.5t-74.5 61.5t-50.5 70.5q-48 84 -57 193v180q9 108 57 192q20 36 50.5 70.5t74.5 62t102.5 44t135.5 16.5q83 0 145 -19.5t107 -50.5t75 -70t48.5 -78 t27.5 -74t13 -59h-158q-5 36 -18.5 63t-33 47t-42 34t-45.5 23q-54 21 -119 24q-73 -3 -130 -28q-24 -11 -47.5 -27t-42 -40t-29.5 -56t-11 -74v-180q0 -44 11 -78t29.5 -58.5t42 -41.5t47.5 -28q57 -26 130 -29q65 3 120 25q23 9 45.5 23.5t41.5 35.5t32.5 49.5t18.5 66.5 h158z" />
<glyph unicode="d" horiz-adv-x="947" d="M888 0h-160v65q-46 -33 -109.5 -54t-150.5 -21q-77 0 -135.5 16.5t-102.5 43.5t-74.5 61.5t-50.5 70.5q-48 84 -57 193v180q9 108 57 192q20 36 50.5 70.5t74.5 62t102.5 44t135.5 16.5q87 0 150.5 -21t109.5 -54v415h160v-1280zM728 375v180q0 42 -11 74t-29.5 56 t-42 40t-47.5 27q-57 25 -130 28q-73 -3 -130 -28q-24 -11 -47.5 -27t-41.5 -40t-29 -56t-11 -74v-180q0 -44 11 -78t29 -58.5t41.5 -41.5t47.5 -28q57 -26 130 -29q73 3 130 29q24 11 47.5 28t42 41.5t29.5 58.5t11 78z" />
<glyph unicode="e" horiz-adv-x="927" d="M203 439v-64q0 -44 11 -78t29.5 -58.5t42 -41.5t47.5 -28q57 -26 130 -29q65 3 120 25q23 9 45.5 23.5t41.5 35.5t32.5 49.5t18.5 66.5h159q-4 -23 -13 -58.5t-27.5 -74t-48.5 -77.5t-75 -70t-107.5 -50.5t-145.5 -19.5q-76 0 -134.5 16.5t-102.5 43.5t-74.5 61.5 t-50.5 70.5q-48 84 -57 193v180q9 108 57 192q20 36 50.5 70.5t74.5 62t102.5 44t134.5 16.5q83 0 145.5 -19.5t107.5 -50.5t75 -70t48.5 -78t27.5 -74t13 -59v-150h-677zM463 780q-65 -3 -119 -24q-23 -9 -45.5 -23t-41.5 -34t-33 -47t-18 -63h515q-5 36 -18.5 63t-32.5 47 t-41.5 34t-45.5 23q-54 21 -120 24z" />
<glyph unicode="f" horiz-adv-x="604" d="M629 1120q-66 -3 -120 -24q-23 -9 -45.5 -22.5t-41.5 -33.5t-33 -47t-18 -63h162v-150h-164v-780h-160v780h-165v150h168q4 24 13 59t28 74t49 77.5t75 69.5t107 50.5t145 19.5v-160v0z" />
<glyph unicode="g" horiz-adv-x="989" d="M912 931v-906q-9 -109 -57 -193q-20 -36 -51 -70.5t-75 -61.5t-102.5 -43.5t-134.5 -16.5q-102 0 -173 29t-118 72t-73 93.5t-38 92.5h161q23 -51 63 -78.5t80 -40.5q47 -15 98 -17q73 3 130 29q24 11 47.5 28t42 41.5t29.5 58t11 77.5v40q-46 -32 -109.5 -53.5 t-150.5 -21.5q-77 0 -135.5 16.5t-102.5 43.5t-74.5 61.5t-50.5 70.5q-48 84 -57 193v180q9 108 57 192q20 36 50.5 70.5t74.5 62t102.5 44t135.5 16.5q87 0 150.5 -20.5t109.5 -54.5v66h160zM752 555q0 42 -11 74.5t-29.5 56.5t-42 40t-47.5 27q-57 25 -130 28 q-73 -3 -130 -28q-24 -11 -47.5 -27t-42 -40t-29.5 -56.5t-11 -74.5v-180q0 -44 11 -78t29.5 -58.5t42 -41.5t47.5 -28q57 -26 130 -29q73 3 130 29q24 11 47.5 28t42 41.5t29.5 58.5t11 78v180z" />
<glyph unicode="h" horiz-adv-x="997" d="M497 940q76 0 134.5 -16.5t102.5 -44t75 -62t51 -70.5q48 -84 57 -192v-555h-160v555q0 42 -11 74t-29.5 55.5t-42 39.5t-47.5 27q-57 25 -130 28q-73 -3 -130 -28q-24 -11 -47.5 -27t-42 -39.5t-29.5 -55.5t-11 -74v-555h-160v1280h160v-416q45 33 108.5 54.5 t151.5 21.5z" />
<glyph unicode="i" horiz-adv-x="366" d="M182 1084q-22 0 -41.5 8.5t-34.5 23t-23.5 34t-8.5 41.5q0 23 8.5 42.5t23.5 34t34.5 23t41.5 8.5t42 -8.5t35 -23t23.5 -34t8.5 -42.5q0 -22 -8.5 -41.5t-23.5 -34t-35 -23t-42 -8.5zM262 930v-930h-160v930h160z" />
<glyph unicode="j" horiz-adv-x="531" d="M368 1082q-23 0 -42.5 8.5t-33.5 23t-22.5 34t-8.5 41.5q0 23 8.5 42.5t22.5 34t33.5 23t42.5 8.5q22 0 42 -8.5t34.5 -23t23 -34t8.5 -42.5q0 -22 -8.5 -41.5t-23 -34t-34.5 -23t-42 -8.5zM455 25q-9 -109 -57 -193q-20 -36 -51 -70.5t-75 -61.5t-102.5 -43.5 t-134.5 -16.5v160q73 3 130 28q24 10 47.5 26.5t42 40t29.5 56t11 74.5v905h160v-905z" />
<glyph unicode="k" horiz-adv-x="842" d="M287 492l533 -492h-226l-356 315v-315h-162v1280h162v-611l356 271h226z" />
<glyph unicode="l" horiz-adv-x="369" d="M266 1280v-1280h-160v1280h160z" />
<glyph unicode="m" horiz-adv-x="1371" d="M1256 0h-160v555q0 42 -7 74t-18.5 56t-26 40t-29.5 27q-36 25 -81 28q-43 -3 -76 -28q-14 -11 -27.5 -27t-24 -40t-17 -56t-6.5 -74v-555h-160v555q0 42 -6.5 74t-17 56t-24.5 40t-28 27q-33 25 -75 28q-46 -3 -81 -28q-15 -11 -30 -27t-26 -40t-18 -56t-7 -74v-555 h-160v930h160v-65q10 11 22.5 24t31 24.5t44.5 19t62 7.5q85 0 141.5 -34t91.5 -83q34 49 90.5 83t142.5 34q72 0 131 -25.5t101 -74.5t65 -121t23 -164v-555z" />
<glyph unicode="n" horiz-adv-x="993" d="M497 940q76 0 134.5 -16.5t102.5 -44t75 -62t51 -70.5q48 -84 57 -192v-555h-160v555q0 42 -11 74t-29.5 55.5t-42 39.5t-47.5 27q-57 25 -130 28q-73 -3 -130 -28q-24 -11 -47.5 -27t-42 -39.5t-29.5 -55.5t-11 -74v-555h-160v930h160v-66q45 33 108.5 54.5t151.5 21.5z " />
<glyph unicode="o" horiz-adv-x="927" d="M464 940q76 0 134.5 -16.5t102.5 -44t74.5 -62t50.5 -70.5q48 -84 57 -192v-180q-9 -109 -57 -193q-20 -36 -50.5 -70.5t-74.5 -61.5t-102.5 -43.5t-134.5 -16.5q-77 0 -135.5 16.5t-102.5 43.5t-74.5 61.5t-50.5 70.5q-48 84 -57 193v180q9 108 57 192q20 36 50.5 70.5 t74.5 62t102.5 44t135.5 16.5zM724 555q0 42 -11 74t-29.5 56t-42 40t-47.5 27q-57 25 -130 28q-74 -3 -131 -28q-24 -11 -47.5 -27t-42 -40t-29.5 -56t-11 -74v-180q0 -44 11 -78t29.5 -58.5t42 -41.5t47.5 -28q57 -26 131 -29q73 3 130 29q24 11 47.5 28t42 41.5 t29.5 58.5t11 78v180z" />
<glyph unicode="p" horiz-adv-x="970" d="M71 930h160v-65q46 33 109.5 54t150.5 21q76 0 134.5 -16.5t102.5 -44t75 -62t51 -70.5q48 -84 57 -192v-180q-9 -109 -57 -193q-20 -36 -51 -70.5t-75 -61.5t-102.5 -43.5t-134.5 -16.5q-87 0 -150.5 21t-109.5 54v-425h-160v1290zM231 555v-180q0 -42 11 -74.5 t29.5 -56t42 -40t47.5 -26.5q57 -25 130 -28q72 3 129 28q24 10 47.5 26.5t42 40t29.5 56t11 74.5v180q0 44 -11 77.5t-29.5 58.5t-42 42t-47.5 28q-57 26 -129 29q-73 -3 -130 -29q-24 -11 -47.5 -28t-42 -42t-29.5 -58.5t-11 -77.5z" />
<glyph unicode="q" horiz-adv-x="985" d="M912 -360h-160v425q-46 -33 -109.5 -54t-150.5 -21q-77 0 -135.5 16.5t-102.5 43.5t-74.5 61.5t-50.5 70.5q-48 84 -57 193v180q9 108 57 192q20 36 50.5 70.5t74.5 62t102.5 44t135.5 16.5q87 0 150.5 -21t109.5 -54v65h160v-1290zM752 555q0 44 -11 77.5t-29.5 58.5 t-42 42t-47.5 28q-57 26 -130 29q-73 -3 -130 -29q-24 -11 -47.5 -28t-41.5 -42t-29 -58.5t-11 -77.5v-180q0 -42 11 -74.5t29 -56t41.5 -40t47.5 -26.5q57 -25 130 -28q73 3 130 28q24 10 47.5 26.5t42 40t29.5 56t11 74.5v180z" />
<glyph unicode="r" horiz-adv-x="508" d="M68 0v930h160v-65q46 33 109.5 54t150.5 21v-150q-73 -3 -130 -29q-24 -11 -47.5 -28t-42 -42t-29.5 -58.5t-11 -77.5v-555h-160z" />
<glyph unicode="s" horiz-adv-x="675" d="M555 703q-81 51 -135.5 73t-79.5 22q-23 0 -45 -7.5t-38.5 -20.5t-26.5 -32t-10 -41q0 -34 15 -60t39 -46t55 -36.5t64 -31.5q40 -18 82 -41.5t76 -56.5t55.5 -78t21.5 -106v-5q0 -64 -23 -110.5t-62 -76.5t-91.5 -44.5t-111.5 -14.5q-69 0 -123 16t-93.5 37t-64 42 t-34.5 32l96 94q18 -15 43.5 -30t54.5 -26.5t59.5 -19t60.5 -7.5q66 0 104 30t38 78q0 29 -13.5 52t-35.5 42t-50 33.5t-58 27.5q-42 18 -86 41t-80 57.5t-59.5 84.5t-23.5 123q0 67 23.5 113.5t61 75t85 41.5t95.5 13q45 0 83 -9.5t72.5 -25.5t68.5 -36.5t71 -42.5z" />
<glyph unicode="t" horiz-adv-x="558" d="M525 930v-150h-165v-780h-160v780h-164v150h164v350h162v-350h163z" />
<glyph unicode="u" horiz-adv-x="958" d="M883 930v-555q-9 -109 -57 -193q-20 -36 -51 -70.5t-75 -61.5t-102.5 -43.5t-134.5 -16.5q-77 0 -135.5 16.5t-102.5 43.5t-74.5 61.5t-50.5 70.5q-48 84 -57 193v555h160v-555q0 -42 11 -74.5t29.5 -56t42 -40t47.5 -26.5q57 -25 130 -28q73 3 130 28q24 10 47.5 26.5 t42 40t29.5 56t11 74.5v555h160z" />
<glyph unicode="v" horiz-adv-x="1008" d="M983 940l-325 -940h-285l-326 940h175l292 -820l296 820h173z" />
<glyph unicode="w" horiz-adv-x="1462" d="M1422 940l-300 -940h-187l-207 660l-206 -660h-186l-300 940h182l212 -750l211 750h175l212 -749l211 749h183z" />
<glyph unicode="x" horiz-adv-x="1054" d="M427 472q-80 104 -137 177t-98 126t-71 91.5t-57 73.5h203l262 -337l258 337h203l-361 -468q90 -118 181 -236t181 -236h-199l-263 340q-66 -85 -132.5 -168.5t-131.5 -171.5h-202z" />
<glyph unicode="y" horiz-adv-x="931" d="M893 940l-455 -1295h-187l129 355l-328 940h184l237 -683l237 683h183z" />
<glyph unicode="z" horiz-adv-x="920" d="M847 790l-545 -640h545v-150h-783v150l549 640h-549v150h783v-150z" />
<glyph unicode="{" horiz-adv-x="827" d="M428 830q0 -85 -35.5 -157t-95.5 -121q60 -49 95.5 -121t35.5 -157v-236q0 -63 29 -109.5t74 -76.5t101 -44.5t110 -14.5v-150q-90 2 -175.5 27.5t-151.5 75t-106.5 122.5t-40.5 170v236q0 40 -15 75t-41.5 61.5t-62.5 42.5t-78 19v160q42 3 78 19t62.5 42.5t41.5 61.5 t15 75v235q0 97 40.5 170t106.5 122.5t151.5 75t175.5 27.5v-150q-54 0 -110 -14.5t-101 -44.5t-74 -76.5t-29 -109.5v-235v0z" />
<glyph unicode="|" horiz-adv-x="410" d="M285 -350h-160v1849h160v-1849z" />
<glyph unicode="}" horiz-adv-x="883" d="M418 830v235q0 63 -29 109.5t-74 76.5t-101 44.5t-110 14.5v150q90 -2 175.5 -27.5t151.5 -75t106.5 -122.5t40.5 -170v-235q0 -40 15 -75t41.5 -61.5t62.5 -42.5t78 -19v-160q-42 -3 -78 -19t-62.5 -42.5t-41.5 -61.5t-15 -75v-236q0 -97 -40.5 -170t-106.5 -122.5 t-151.5 -75t-175.5 -27.5v150q54 0 110 14.5t101 44.5t74 76.5t29 109.5v236q0 85 35.5 157t95.5 121q-60 49 -95.5 121t-35.5 157z" />
<glyph unicode="~" horiz-adv-x="964" d="M911 721q-23 -59 -53.5 -98.5t-65.5 -63t-72.5 -33.5t-75.5 -10q-48 0 -86 13t-72 29t-67.5 29t-72.5 13q-41 0 -70.5 -17.5t-49.5 -37.5q-23 -24 -39 -54l-145 69q1 3 3 7q2 3 3.5 6l3.5 7q29 61 62 99t67 59.5t67 29.5t62 8q21 0 38.5 -3t30.5 -7q15 -4 28 -9l116 -55 q23 -11 44 -16t40 -5q40 0 70 17t50 37q24 24 40 55z" />
<glyph unicode="&#xad;" horiz-adv-x="829" d="M742 620v-150h-675v150h675z" />
<glyph unicode="&#xde;" horiz-adv-x="1673" d="M1578 1073v-1074q0 -77 -19.5 -130.5t-49 -88.5t-65 -54.5t-67.5 -28.5t-55.5 -11t-29.5 -2q-69 0 -118 18t-82 40q-39 26 -65 58l108 105l16.5 -16.5t30 -23.5t46 -21.5t64.5 -9.5q23 0 40.5 7t30.5 18.5t22.5 26.5t15.5 30q14 36 18 83v151q-2 -30 -14 -52.5t-30 -39.5 t-41 -29t-46 -20q-55 -19 -123 -24h-37q-93 0 -157 26t-106.5 66t-66 89.5t-35 96t-14 85t-2.5 57.5v258q0 64 -17.5 108t-45 72.5t-59.5 43.5t-61.5 22.5t-51 8.5t-27.5 1q-48 0 -85 -11t-64.5 -29t-46 -41t-30.5 -47q-28 -56 -32 -128v-329q3 -53 23 -93q9 -17 22 -33.5 t32 -29.5t45 -21t60 -8h117v-149h-215q-68 5 -122 39q-23 15 -45 37.5t-39 55.5t-27.5 77t-10.5 103v22v486q32 61 71.5 104t81 72t82 46t75 25.5t60.5 10.5t39 2h9q78 -2 137.5 -20t103.5 -46t75 -63t51 -72t31 -73t16.5 -66t6.5 -50.5t1 -26.5v-258q0 -68 17.5 -114.5 t44 -76.5t58 -46t60.5 -23.5t50.5 -9t27.5 -1.5q62 0 105 19t71.5 47.5t44 62.5t23 64t9 52t1.5 26v668h159z" />
<glyph unicode="&#xe0d;" horiz-adv-x="1673" d="M1578 1073v-1074q0 -77 -19.5 -130.5t-49 -88.5t-65 -54.5t-67.5 -28.5t-55.5 -11t-29.5 -2q-69 0 -118 18t-82 40q-39 26 -65 58l108 105l16.5 -16.5t30 -23.5t46 -21.5t64.5 -9.5q23 0 40.5 7t30.5 18.5t22.5 26.5t15.5 30q14 36 18 83v151q-2 -30 -14 -52.5t-30 -39.5 t-41 -29t-46 -20q-55 -19 -123 -24h-37q-93 0 -157 26t-106.5 66t-66 89.5t-35 96t-14 85t-2.5 57.5v258q0 64 -17.5 108t-45 72.5t-59.5 43.5t-61.5 22.5t-51 8.5t-27.5 1q-48 0 -85 -11t-64.5 -29t-46 -41t-30.5 -47q-28 -56 -32 -128v-329q3 -53 23 -93q9 -17 22 -33.5 t32 -29.5t45 -21t60 -8h117v-149h-215q-68 5 -122 39q-23 15 -45 37.5t-39 55.5t-27.5 77t-10.5 103v22v486q32 61 71.5 104t81 72t82 46t75 25.5t60.5 10.5t39 2h9q78 -2 137.5 -20t103.5 -46t75 -63t51 -72t31 -73t16.5 -66t6.5 -50.5t1 -26.5v-258q0 -68 17.5 -114.5 t44 -76.5t58 -46t60.5 -23.5t50.5 -9t27.5 -1.5q62 0 105 19t71.5 47.5t44 62.5t23 64t9 52t1.5 26v668h159z" />
<glyph unicode="&#xff;" horiz-adv-x="1942" d="M959 506h-23v10h23h24q6 1 11.5 1h11.5v-127h21v-9h-90v9h22v116zM1006 571q0 -10 -7 -17t-17 -7t-17.5 7t-7.5 17t7.5 17t17.5 7q9 0 16.5 -7t7.5 -17zM1053 558h21q7 0 13.5 1.5t13.5 2.5v-45h27v-10h-27v-95q0 -5 0.5 -11.5t8.5 -6.5q10 0 13 7t5 15l10 -2 q-5 -21 -18.5 -29.5t-34.5 -8.5q-24 0 -28 9t-4 22v100h-21v10h21v41zM1261 407h-1q-6 -17 -20.5 -24t-31.5 -7q-16 0 -24.5 3.5t-12 10t-4 16.5t-0.5 22v78h-24v10h24h23q6 1 12 1h12v-95q0 -14 1 -23t12 -9q7 0 13.5 4t11 10t7 12.5t2.5 10.5v79h-24v10h24h23q6 1 12 1h12 v-127h22v-9h-22q-6 0 -12 -0.5t-12 -1.5t-12 -1.5t-11 -0.5v30zM1445 400q-18 -24 -44 -24q-13 0 -24.5 6t-20 15.5t-13.5 21.5t-5 24q0 20 7 34t17.5 23t22.5 13.5t21 4.5q12 0 22.5 -6.5t15.5 -17.5h1v106h-27v10h27q12 0 23.5 1t23.5 2v-223h19v-9h-66v19zM1445 467 q0 17 -10.5 29.5t-24.5 12.5q-8 0 -13.5 -4t-5.5 -12v-90q0 -8 4 -13.5t12 -5.5q16 0 27 13t11 29v41zM307 504h91v-122h-28l-6 28q-4 -5 -10 -11.5t-15 -12t-21 -9t-29 -2.5q-31 2 -44.5 11.5t-21.5 17.5q-20 19 -28 48.5t-4.5 59t19 55.5t44.5 38q7 3 18 5.5t26 2.5 q16 0 36.5 -3.5t37.5 -20.5q20 -20 22.5 -34t3.5 -18h-43q-6 21 -21.5 29.5t-34.5 8.5q-20 0 -39 -13q-11 -9 -17 -23.5t-8 -30t0 -30t7 -24.5q7 -14 19.5 -26.5t32.5 -14.5q12 -1 26.5 3.5t25.5 17.5q9 11 10.5 19t2.5 13h-52v38zM431 515h34v-25h1q2 5 4.5 9.5t11.5 10.5 q5 4 10.5 6.5t13.5 1.5v-36q-11 1 -24 -1t-17 -24v-74h-34v132zM597 383q-4 4 -4 13q-9 -9 -18 -14t-24 -5q-42 0 -40 41q1 14 8.5 26t30.5 16q10 0 19 2t15 4q9 3 9 15t-23 12q-14 0 -18 -7t-4 -15h-32q0 16 6 25.5t14.5 14t17.5 6t16 1.5q11 0 19 -1.5t13 -3.5 q10 -5 17 -13.5t7 -24.5v-72q-1 -5 1.5 -9t5.5 -7v-4h-36zM593 445q-8 -5 -16.5 -5t-15.5 -2q-8 -2 -12.5 -8t-2.5 -14q2 -5 7 -9t16 -2q15 3 19.5 12t4.5 20v8zM690 515v-20q7 9 12.5 15t22.5 8q14 1 23 -5t14 -11q9 -10 14 -24.5t5.5 -30.5t-4 -30.5t-13.5 -24.5 q-9 -8 -17 -11.5t-22 -3.5t-20.5 5.5t-14.5 13.5v-67h-35v186h35zM695 472q-2 -4 -3.5 -11t-1.5 -15t1.5 -15t3.5 -11q5 -8 11 -11.5t12 -3.5t12 3.5t11 11.5q2 4 4 11t2 15t-2 15t-4 11q-5 8 -11 11.5t-12 3.5t-12 -3.5t-11 -11.5zM800 561h35v-64q5 8 14 14t19 6 q23 0 37 -10.5t14 -36.5v-89h-34v79q0 9 -4 17.5t-21 8.5q-16 0 -20.5 -7t-4.5 -15v-83h-35v180zM1566 452v-43q0 -25 28 -25q20 0 35 10t20 30l8 -2q-7 -24 -24.5 -35t-41.5 -11q-32 0 -56 17.5t-24 52.5q0 17 7 30.5t18 22.5t25.5 14t28.5 5q26 0 46.5 -16.5t20.5 -42.5 q0 -6 -6 -6.5t-10 -0.5h-75zM1611 461v33q0 15 -24 15q-21 0 -21 -16v-32h45zM1726 404q0 -12 -8.5 -20t-19.5 -8t-19.5 8.5t-8.5 19.5t8.5 19.5t19.5 8.5t19.5 -8.5t8.5 -19.5z" />
<glyph unicode="&#x152;" d="M-100 1350v-150h-444v201h-80v150h159q19 -2 35 -10q14 -7 25 -21.5t11 -39.5v-130h294z" />
<glyph unicode="&#xf70b;" d="M-100 1350v-150h-444v201h-80v150h159q19 -2 35 -10q14 -7 25 -21.5t11 -39.5v-130h294z" />
<glyph unicode="&#x153;" d="M-150 1818v-150h-444v201h-80v150h159q19 -2 35 -10q14 -7 25 -21.5t11 -39.5v-130h294z" />
<glyph unicode="&#xf714;" d="M-150 1818v-150h-444v201h-80v150h159q19 -2 35 -10q14 -7 25 -21.5t11 -39.5v-130h294z" />
<glyph unicode="&#x160;" d="M-726 1201v159q1 19 10 35q7 14 21.5 25t40.5 11h352v-150h-274v-80h-150z" />
<glyph unicode="&#xf709;" d="M-726 1201v159q1 19 10 35q7 14 21.5 25t40.5 11h352v-150h-274v-80h-150z" />
<glyph unicode="&#x161;" d="M-295 1485h-455q-14 0 -23.5 -7t-15.5 -18.5t-9 -25t-3 -25.5q0 -14 3.5 -28.5t10 -26t15.5 -19t20 -7.5q16 0 25.5 8t14.5 19t6.5 23t1.5 21v12h123v-8q0 -8 1.5 -20.5t6.5 -24.5t15 -21t27 -9t26.5 8.5t14.5 20t6.5 24t1.5 20.5v10h128q0 -63 -17.5 -103.5t-44 -64.5 t-57 -33.5t-56.5 -9.5t-46.5 6t-35.5 14q-18 9 -31 21q-5 -4 -16.5 -11t-27 -13.5t-33 -11.5t-33.5 -5q-11 0 -28 2t-36.5 9t-39.5 20.5t-36 36.5t-26 57t-10 83q0 68 24.5 112t55.5 69.5t60 35.5t38 10h455v-150z" />
<glyph unicode="&#xf712;" d="M-295 1485h-455q-14 0 -23.5 -7t-15.5 -18.5t-9 -25t-3 -25.5q0 -14 3.5 -28.5t10 -26t15.5 -19t20 -7.5q16 0 25.5 8t14.5 19t6.5 23t1.5 21v12h123v-8q0 -8 1.5 -20.5t6.5 -24.5t15 -21t27 -9t26.5 8.5t14.5 20t6.5 24t1.5 20.5v10h128q0 -63 -17.5 -103.5t-44 -64.5 t-57 -33.5t-56.5 -9.5t-46.5 6t-35.5 14q-18 9 -31 21q-5 -4 -16.5 -11t-27 -13.5t-33 -11.5t-33.5 -5q-11 0 -28 2t-36.5 9t-39.5 20.5t-36 36.5t-26 57t-10 83q0 68 24.5 112t55.5 69.5t60 35.5t38 10h455v-150z" />
<glyph unicode="&#x178;" d="M-727 1661v159q1 19 10 35q7 14 21.5 25t40.5 11h352v-150h-274v-80h-150z" />
<glyph unicode="&#xf717;" d="M-727 1661v159q1 19 10 35q7 14 21.5 25t40.5 11h352v-150h-274v-80h-150z" />
<glyph unicode="&#x17d;" d="M-98 1303h-103v-102h-150v102h-102v150h102v103h150v-103h103v-150z" />
<glyph unicode="&#xf70d;" d="M-98 1303h-103v-102h-150v102h-102v150h102v103h150v-103h103v-150z" />
<glyph unicode="&#x17e;" d="M-201 1765h-103v-102h-150v102h-102v150h102v103h150v-103h103v-150z" />
<glyph unicode="&#xf716;" d="M-201 1765h-103v-102h-150v102h-102v150h102v103h150v-103h103v-150z" />
<glyph unicode="&#x192;" d="M-521 1575q39 0 73 -15t59.5 -40.5t40 -59.5t14.5 -72q0 -39 -15 -73.5t-40.5 -60t-59.5 -40t-72 -14.5h-620v152h436q-2 9 -3 18t-1 18q0 38 14.5 72t40 59.5t60 40.5t73.5 15zM-521 1326q26 0 44 18t18 44t-18 43.5t-44 17.5t-44.5 -17.5t-18.5 -43.5t18.5 -44 t44.5 -18z" />
<glyph unicode="&#xf703;" d="M-521 1575q39 0 73 -15t59.5 -40.5t40 -59.5t14.5 -72q0 -39 -15 -73.5t-40.5 -60t-59.5 -40t-72 -14.5h-620v152h436q-2 9 -3 18t-1 18q0 38 14.5 72t40 59.5t60 40.5t73.5 15zM-521 1326q26 0 44 18t18 44t-18 43.5t-44 17.5t-44.5 -17.5t-18.5 -43.5t18.5 -44 t44.5 -18z" />
<glyph unicode="&#x2c6;" d="M-100 1320v-150h-361q0 60 -7 93.5t-15 50.5q-10 19 -22 25l-126 -126l-126 126q-12 -6 -22 -25q-8 -17 -15 -50.5t-7 -93.5h-150q0 55 10 113t36 106.5t71.5 82.5t116.5 40l86 -88l86 88q50 0 86.5 -17t62 -44.5t42 -62t25.5 -68.5h229z" />
<glyph unicode="&#xf707;" d="M-100 1320v-150h-361q0 60 -7 93.5t-15 50.5q-10 19 -22 25l-126 -126l-126 126q-12 -6 -22 -25q-8 -17 -15 -50.5t-7 -93.5h-150q0 55 10 113t36 106.5t71.5 82.5t116.5 40l86 -88l86 88q50 0 86.5 -17t62 -44.5t42 -62t25.5 -68.5h229z" />
<glyph unicode="&#x2dc;" d="M-735 1496v-80h402v-150h-481q-26 0 -40 10.5t-21 24.5q-8 16 -10 36v159h150z" />
<glyph unicode="&#xf710;" d="M-735 1496v-80h402v-150h-481q-26 0 -40 10.5t-21 24.5q-8 16 -10 36v159h150z" />
<glyph unicode="&#xe01;" horiz-adv-x="1043" d="M100 0v822q33 61 72 104t80.5 71.5t82 45t75 25t60.5 10.5t39 2h10q78 -2 137 -20t103.5 -45.5t75 -62.5t50.5 -72t31 -73t16.5 -65.5t6.5 -50t1 -26.5v-665h-160v665q0 64 -17.5 107.5t-44.5 72t-59.5 43.5t-61.5 22.5t-50.5 8.5t-27.5 1q-49 0 -86 -11t-64.5 -29 t-46 -41t-30.5 -47q-28 -56 -32 -127v-665h-160z" />
<glyph unicode="&#xe02;" horiz-adv-x="939" d="M836 1074v-720q0 -90 -25.5 -152.5t-65 -103.5t-86 -64t-89 -33.5t-74.5 -13t-41 -2.5q-94 0 -159 25t-107.5 63.5t-66.5 85t-35 88t-13.5 73.5t-2.5 42q0 53 15 95t38 76t50 62t51 53.5t41 49t20 48.5q1 7 1 12.5v11.5q0 36 -12 61.5t-31.5 42.5t-43 27t-46.5 15 t-42.5 6.5t-30.5 1.5h-11v150h95q65 0 111 -18t77 -46t49.5 -63t28 -69.5t12 -64t2.5 -47.5q0 -5 -0.5 -9t-0.5 -6v-5q-3 -29 -15 -56.5t-26 -50.5q-16 -26 -35 -51q-46 -52 -71.5 -93t-38 -70.5t-15 -47t-2.5 -23.5q0 -55 14.5 -92.5t36.5 -61.5t48 -37.5t50 -19.5t41.5 -7 t23.5 -1q50 0 85.5 14.5t60 37t39.5 49t23 51t10.5 43t2.5 24.5v720h160z" />
<glyph unicode="&#xe03;" horiz-adv-x="1016" d="M445 966q19 -21 30 -49.5t16.5 -57.5t6.5 -54.5t1 -40.5v-19q-4 -29 -16 -57t-26 -51q-16 -26 -35 -50q-46 -52 -71.5 -93t-38 -70.5t-15 -47t-2.5 -23.5q0 -54 14.5 -91.5t36.5 -62t48.5 -37.5t50 -19t41.5 -7t24 -1q49 0 85 14.5t60 37t39 49t23 50.5t10.5 42.5 t2.5 24.5v720h160v-720q0 -90 -25.5 -152.5t-64.5 -103.5t-85.5 -63.5t-89 -33.5t-74.5 -13t-41 -2q-94 0 -159.5 25t-108 63.5t-66.5 84.5t-35 88t-13.5 74t-2.5 42q0 53 15 94.5t38 76t50 62.5t51 53t41 48.5t20 48.5q2 6 2 11.5v11.5q0 23 -5 41t-13 33l-79 -72l-185 201 l107 102l84 -94l93 94z" />
<glyph unicode="&#xe04;" horiz-adv-x="1039" d="M520 1080q100 0 170.5 -26.5t117 -67.5t73 -90t40 -95.5t16.5 -83.5t3 -53v-10v-654h-160v654q0 50 -11 88t-29.5 66t-42 47.5t-47.5 31.5q-57 29 -130 33q-47 0 -82.5 -11.5t-62.5 -30.5t-46 -42.5t-32 -48.5q-30 -59 -37 -133v-109q93 55 206 55q53 0 97 -12v-165 q-20 10 -44.5 11.5t-52.5 1.5q-74 0 -129 -36q-28 -18 -46.5 -44.5t-30.5 -59.5v-296h-160v665q0 99 26 168.5t66.5 115.5t89 72.5t94 39.5t82 16t52.5 3h10v0z" />
<glyph unicode="&#xe05;" horiz-adv-x="1035" d="M867 967q61 -77 73 -189v-778h-160v718q0 66 -23 114q-24 48 -64 75l-173 -112l-172 112q-42 -28 -65 -75q-23 -48 -23 -114v-173q93 55 207 55q52 0 97 -12v-165q-21 10 -45.5 11.5t-51.5 1.5q-75 0 -129 -36q-29 -18 -47.5 -44.5t-30.5 -59.5v-296h-160v778 q12 110 74 189t158 115l188 -116l188 116q95 -36 159 -115z" />
<glyph unicode="&#xe06;" horiz-adv-x="1223" d="M1117 1073v-666v-13q0 -18 -3 -55t-15.5 -82.5t-36.5 -93.5t-66.5 -87.5t-106 -65t-154.5 -25.5h-38q-68 5 -123 24q-23 8 -46 20t-41 29t-30 39.5t-13 52.5v-150h-160v864l-99 -94l-185 202l108 101l84 -94l92 94h160v-666q0 -4 1.5 -26t9 -52t23 -64t43.5 -63t71 -48 t105 -19q6 0 28 1.5t51 9t61 23.5t58.5 46.5t44 77t17.5 114.5v666h160z" />
<glyph unicode="&#xe07;" horiz-adv-x="640" d="M241 1074h312v-774q0 -77 -19.5 -130.5t-49 -88.5t-65 -54.5t-67.5 -28.5t-55.5 -11t-29.5 -2q-69 0 -118 18t-82 40q-39 26 -65 58l108 105l16.5 -16.5t30 -23.5t46 -21.5t64.5 -9.5q23 0 40.5 7t31 18.5t22.5 26.5t15 30q14 36 17 83v624h-152v150z" />
<glyph unicode="&#xe08;" horiz-adv-x="954" d="M446 1080q16 0 52.5 -3t82 -16t94.5 -39t89.5 -72.5t66.5 -116t26 -168.5v-665h-161v297q-11 32 -29.5 59t-47.5 45q-28 17 -59.5 26.5t-69.5 9.5q-28 0 -52.5 -2t-44.5 -12v165q43 12 97 12q113 0 206 -55v109q-7 74 -37 133q-13 25 -32 48.5t-46 42.5t-63 30.5 t-82 11.5q-73 -4 -130 -33q-24 -12 -47.5 -31.5t-42 -47.5t-29.5 -66t-11 -88h-160v11q0 16 3 52.5t16.5 83t40 96t73 90t116.5 67t171 26.5h10v0z" />
<glyph unicode="&#xe09;" horiz-adv-x="1104" d="M560 1080q76 0 134.5 -16.5t102.5 -44t75 -62t51 -70.5q48 -84 57 -192v-695h-160v150q-2 -30 -14 -52.5t-30 -39.5t-40.5 -29t-45.5 -20q-55 -19 -123 -24h-37q-91 0 -154.5 25.5t-106 65.5t-66.5 88.5t-36.5 96t-15.5 87.5t-3 62h-52v150h212v-154q0 -68 17.5 -114.5 t44 -76.5t58.5 -46t61 -23.5t50.5 -9t27.5 -1.5q62 0 105 19t71 47.5t43.5 62.5t23 64t9 52t1.5 26v289q0 42 -11 74t-29.5 56t-42 40t-47.5 27q-57 25 -130 28h-13q-17 0 -50 -5.5t-69.5 -22.5t-69.5 -48.5t-49 -84.5h-160q6 27 18 61.5t33 70.5t51.5 70t74 60.5 t101.5 42.5t133 16z" />
<glyph unicode="&#xe0a;" horiz-adv-x="959" d="M859 1011q0 -122 -117 -151q54 -14 83 -47t34 -82v-377q0 -90 -25.5 -152.5t-65 -103.5t-86 -64t-89 -33.5t-74.5 -13t-41 -2.5q-94 0 -159 25t-107.5 63.5t-66.5 85t-35 88t-13.5 73.5t-2.5 42q0 53 15 94.5t38 76t50 62.5t51 53t41 48.5t20 48.5q1 7 1 12.5v11.5 q0 36 -12 61.5t-31.5 42.5t-43 27t-46.5 15t-42.5 6.5t-30.5 1.5h-11v150h95q65 0 111 -18t77 -46t49.5 -63t28 -69.5t12 -64t2.5 -47.5q0 -5 -0.5 -9t-0.5 -6v-5q-3 -29 -15 -56.5t-26 -50.5q-16 -26 -35 -51q-46 -52 -71.5 -92.5t-38 -70t-15 -47t-2.5 -23.5 q0 -55 14.5 -92.5t36.5 -61.5t48 -37.5t50 -19.5t42 -7t24 -1q49 0 85 14.5t60 37t39 49t23 51t10.5 43t2.5 24.5v340q0 102 -142 102h-53v124h53q71 0 106.5 31.5t35.5 91.5v30h160v-62v0z" />
<glyph unicode="&#xe0b;" horiz-adv-x="1005" d="M877 1010q0 -122 -117 -152q108 -28 117 -129v-377q0 -90 -25.5 -152.5t-64.5 -103.5t-85.5 -63.5t-89 -33.5t-74.5 -13t-41 -2q-94 0 -159.5 25t-108 63.5t-66.5 84.5t-35 88t-13.5 74t-2.5 42q0 53 15 94.5t38 76t50 62.5t51 53t41 48.5t20 48.5q2 6 2 11.5v11.5 q0 22 -5 40.5t-13 33.5l-79 -73l-185 202l107 103l84 -95l93 95l101 -108q19 -21 30 -49.5t16.5 -57.5t6.5 -54.5t1 -40.5v-19q-4 -29 -16 -57t-26 -51q-16 -26 -35 -51q-46 -52 -71.5 -92.5t-38 -70t-15 -47t-2.5 -23.5q0 -54 14.5 -91.5t36.5 -61.5t48.5 -37t50 -19 t41.5 -7t24 -1q49 0 85 14.5t60 36.5t39 48.5t23 51t10.5 42.5t2.5 24v341q0 102 -142 102h-53v123h53q71 0 106.5 31.5t35.5 91.5v32h160v-63v0z" />
<glyph unicode="&#xe0c;" horiz-adv-x="1708" d="M1608 1073v-667v-13q0 -18 -3 -55t-15 -82.5t-36.5 -93.5t-66.5 -87t-105.5 -64.5t-154.5 -25.5h-37q-68 5 -123 24q-23 8 -46 20t-41 29t-30 39.5t-13 52.5v-150h-160v665q0 64 -17.5 107.5t-44.5 72t-59.5 43.5t-61.5 22.5t-50.5 8.5t-27.5 1q-49 0 -86 -11t-64.5 -29 t-46 -41t-30.5 -47q-28 -56 -32 -127v-330q3 -53 23 -93q9 -17 22 -33.5t32 -29.5t45 -21t60 -8h117v-150h-215q-68 5 -122 39q-23 15 -45 37.5t-39 55.5t-27.5 77.5t-10.5 103.5v22v487q32 61 71.5 104t81 71.5t82 45t75 25t60.5 10.5t39 2h10q78 -2 137 -20t103.5 -45.5 t75 -62.5t50.5 -72t31 -73t16.5 -65.5t6.5 -50t1 -26.5v-259q0 -4 1.5 -26t9 -52t23 -64t44 -62.5t71.5 -47.5t105 -19q6 0 27.5 1.5t50 9t60 23.5t58 46t44 76.5t17.5 114.5v667h160z" />
<glyph unicode="&#xe0e;" horiz-adv-x="1100" d="M712 -285q4 0 15.5 11t23.5 28.5t21.5 39t9.5 42.5v829q0 64 -17.5 107.5t-44.5 72t-59.5 43.5t-61.5 22.5t-51 8.5t-28 1q-48 0 -85 -11t-64.5 -29t-46 -41t-30.5 -47q-28 -56 -32 -127v-665h-259v150h99v672q32 61 71.5 104t81 71.5t82 45t75 25t60.5 10.5t39 2h9 q104 -3 175.5 -33t118.5 -73.5t73 -94t38 -95.5t14.5 -78t2.5 -41v-829q-3 -74 -33 -136q-13 -26 -32.5 -52.5t-48.5 -48.5t-68 -37.5t-91 -21.5l-129 118l-127 -118h-410v150h341l196 186l12 -11t31 -28.5t41 -38t41 -38.5t32.5 -31t14.5 -14z" />
<glyph unicode="&#xe0f;" horiz-adv-x="1081" d="M944 -164q-3 -74 -33 -136q-13 -26 -32.5 -52.5t-48.5 -48.5t-68 -37.5t-91 -21.5l-116 102l-110 -102l-129 118l-127 -118h-174v150h105l196 186l122 -114l114 114l162 -161q19 19 35 39q13 17 24 39t11 43v829q0 64 -17.5 107.5t-44.5 72t-59.5 43.5t-61.5 22.5 t-51 8.5t-28 1q-48 0 -85 -11t-64.5 -29t-46 -41t-30.5 -47q-28 -56 -32 -127v-665h-259v150h99v672q32 61 71.5 104t81 71.5t82 45t75 25t60.5 10.5t39 2h9q104 -3 175.5 -33t118.5 -73.5t73 -94t38 -95.5t14.5 -78t2.5 -41v-829v0z" />
<glyph unicode="&#xe10;" horiz-adv-x="1089" d="M927 1088q0 -8 -16 -27.5t-39 -41.5t-47 -42t-40 -28q40 -47 66 -115.5t26 -168.5v-665h-161v297q-11 32 -29.5 59t-47.5 45q-28 17 -59.5 26.5t-69.5 9.5q-28 0 -52.5 -1.5t-44.5 -12.5v165q43 12 97 12q113 0 206 -55v109q-7 74 -37 133q-13 25 -32 48.5t-46 42.5 t-63 30.5t-82 11.5q-73 -4 -130 -33q-24 -12 -47.5 -31.5t-42 -47.5t-29.5 -66t-11 -88h-160v11q0 16 3 52.5t16.5 83t40 96t73 90t116.5 67t171 26.5h9q33 0 67 -4.5t73 -15.5q42 6 81 23q33 14 68 42t58 75q29 -28 53 -52l20 -20l18.5 -18.5t15 -14t8.5 -7.5zM264 -232 l196 186l123 -114l114 114l161 -161q19 19 35 39q13 17 24 39t11 43v86h160v-86q-3 -74 -33 -136q-13 -26 -32.5 -52.5t-48.5 -48.5t-68 -37.5t-91 -21.5l-116 102l-110 -102l-129 118l-127 -118h-174v150h105z" />
<glyph unicode="&#xe11;" horiz-adv-x="1270" d="M787 1080q91 0 154.5 -24.5t105.5 -63t66.5 -85.5t36.5 -91.5t15 -81t3 -54.5v-680h-160v667q0 63 -17.5 106.5t-44 71.5t-58.5 43.5t-61 22.5t-50.5 8t-27.5 1q-62 0 -105 -17.5t-71 -44.5t-43.5 -58.5t-23 -59.5t-9 -48.5t-1.5 -24.5v-667h-160v864l-99 -94l-185 202 l108 101l84 -94l92 94h160v-150q1 29 13 51.5t30 39t41 27.5t46 19q55 18 124 20h37v0z" />
<glyph unicode="&#xe12;" horiz-adv-x="1704" d="M1612 1073v-668v-13q0 -18 -3 -55t-15.5 -82t-36.5 -93t-66.5 -87.5t-106 -64.5t-154.5 -25h-37q-68 5 -123 24q-23 8 -46 20t-41 29t-30 39.5t-13 52.5v-150h-160v718q0 65 -23 114q-23 46 -64 75l-173 -112l-172 112q-21 -15 -37 -33t-28 -42q-23 -49 -23 -114v-383 q3 -53 23 -93q9 -17 22 -33.5t31.5 -29.5t44.5 -21t60 -8h118v-150h-215q-68 5 -122 39q-23 15 -45 37.5t-39 55.5t-27.5 77.5t-10.5 103.5v465q12 109 74 189q32 40 71 68t87 47l188 -116l188 116q48 -19 87 -47t71 -68t49.5 -86.5t24.5 -102.5v-373q0 -4 1.5 -26t9 -52 t23 -63.5t44 -62t71.5 -47.5t105 -19q6 0 27.5 1.5t50.5 8.5t60.5 23.5t58 46.5t44 76t17.5 114v668h160z" />
<glyph unicode="&#xe13;" horiz-adv-x="1720" d="M1610 1073v-1072h-159v149q-2 -30 -14 -52.5t-30 -39.5t-41 -29t-46 -20q-55 -18 -123 -23h-37q-91 0 -154.5 25t-106 64.5t-66.5 87.5t-36.5 93t-15.5 82t-3 55q0 13 1 13v259q0 64 -17.5 107.5t-45 72t-59.5 43.5t-61.5 22.5t-51 8.5t-27.5 1q-48 0 -85 -11t-64.5 -29 t-46 -41t-30.5 -47q-28 -56 -32 -127v-330q3 -53 23 -93q9 -17 22 -33.5t32 -29.5t45 -21t60 -8h117v-149h-215q-68 5 -122 39q-23 15 -45 37.5t-39 55.5t-27.5 77t-10.5 103v22v487q32 61 71.5 104t81 71.5t82 45.5t75 25.5t60.5 10.5t39 2h9q104 -3 175.5 -33t118.5 -73.5 t73 -94.5t38 -96t14.5 -78t2.5 -41v-259q0 -68 17.5 -114.5t44 -76.5t58 -46t60.5 -23.5t50.5 -9t27.5 -1.5q62 0 105 19t71.5 47.5t44 62.5t23 64t9 52t1.5 26v667h159z" />
<glyph unicode="&#xe14;" horiz-adv-x="1051" d="M781 0v675q-5 68 -36 122q-13 23 -33 45t-49 39.5t-67.5 28t-89.5 10.5t-89.5 -10.5t-67 -28t-48.5 -39.5t-33 -45q-31 -54 -36 -122v-352q4 -34 15 -65q9 -27 24.5 -55t41.5 -45q33 -23 65 -23q29 0 52 13t37 27l104 -106q-24 -24 -54 -42q-26 -16 -62.5 -29t-81.5 -13 q-14 0 -29.5 1.5t-31.5 5.5q-58 14 -103 46.5t-75.5 77t-46 98t-15.5 109.5v352q9 96 39 163.5t71 112t88 70.5t91 38.5t79 16t52 3.5h14h13q17 0 52 -3.5t79 -16t91.5 -38.5t88.5 -70.5t71 -112t40 -163.5v-675h-160z" />
<glyph unicode="&#xe15;" horiz-adv-x="1043" d="M867 967q31 -39 48.5 -86t24.5 -103v-778h-160v718q0 66 -23 114q-24 48 -64 75l-173 -112l-172 112q-42 -28 -65 -75q-23 -48 -23 -114v-383q3 -53 23 -93q9 -17 22 -33.5t31.5 -29.5t44.5 -21t60 -8h118v-150h-215q-68 5 -122 39q-23 15 -45 37.5t-39 55.5t-27.5 77.5 t-10.5 103.5v465q12 110 74 189t158 115l188 -116l188 116q95 -36 159 -115z" />
<glyph unicode="&#xe16;" horiz-adv-x="1039" d="M519 1080q78 -2 137 -20t103.5 -45.5t75 -62.5t50.5 -72t31 -73t16.5 -65.5t6.5 -50t1 -26.5v-665h-160v665q0 64 -17.5 107.5t-44.5 72t-59.5 43.5t-61.5 22.5t-50.5 8.5t-27.5 1q-49 0 -86 -11t-64.5 -29t-46 -41t-30.5 -47q-28 -56 -32 -127v-515h99v-150h-259v822 q33 61 72 104t80.5 71.5t82 45t75 25t60.5 10.5t39 2h10v0z" />
<glyph unicode="&#xe17;" horiz-adv-x="1039" d="M772 0v667q0 63 -17.5 106.5t-44 71.5t-58.5 43.5t-61 22.5t-50.5 8t-27.5 1q-62 0 -105 -17.5t-71 -44.5t-43.5 -58.5t-23 -59.5t-9 -48.5t-1.5 -24.5v-667h-160v1073h160v-150q1 29 13 51.5t30 39t41 27.5t46 19q55 18 124 20h37q91 0 154.5 -24.5t105.5 -63 t66.5 -85.5t36.5 -91.5t15 -81t3 -54.5v-13v-667h-160z" />
<glyph unicode="&#x2219;" horiz-adv-x="1039" d="M772 0v667q0 63 -17.5 106.5t-44 71.5t-58.5 43.5t-61 22.5t-50.5 8t-27.5 1q-62 0 -105 -17.5t-71 -44.5t-43.5 -58.5t-23 -59.5t-9 -48.5t-1.5 -24.5v-667h-160v1073h160v-150q1 29 13 51.5t30 39t41 27.5t46 19q55 18 124 20h37q91 0 154.5 -24.5t105.5 -63 t66.5 -85.5t36.5 -91.5t15 -81t3 -54.5v-13v-667h-160z" />
<glyph unicode="&#xe18;" horiz-adv-x="877" d="M560 603q53 -9 102 -35.5t86.5 -65.5t60 -89t22.5 -106q0 -83 -30 -144t-81.5 -100.5t-121 -58.5t-147.5 -19q-68 0 -124 10.5t-101 26.5t-78.5 35t-56.5 36v249h160v-163q43 -19 93.5 -31t104.5 -12q50 0 90.5 12.5t69 35.5t43.5 54t15 69q0 39 -13 63.5t-30.5 38.5 t-35.5 19.5t-28 7.5q-4 1 -32.5 5.5t-64.5 10.5l-72 12t-54 10q-12 2 -34 8.5t-48.5 19t-54 33t-50 52t-36.5 75t-14 101.5q0 87 31 147.5t81 98.5t113 55t127 17q66 0 120.5 -15t94.5 -32q47 -20 84 -46l82 -56l-89 -134l-68 44q-25 16 -56 30.5t-62.5 25.5t-59.5 17t-46 6 q-38 0 -72 -6.5t-60 -24t-41.5 -48t-15.5 -79.5t26.5 -76.5t69 -43t95.5 -23.5t106 -17z" />
<glyph unicode="&#xe19;" horiz-adv-x="1047" d="M260 1073v-667q0 -68 17.5 -114.5t44 -76.5t58.5 -46t61 -23.5t50.5 -9t27.5 -1.5q62 0 105 19t71 47.5t43.5 62.5t23 64t9 52t1.5 26v667h160v-1073h-160v150q-2 -30 -14 -52.5t-30 -39.5t-40.5 -29t-45.5 -20q-55 -19 -123 -24h-37q-91 0 -154.5 25.5t-106 64.5 t-66.5 87t-36.5 93.5t-15.5 82.5t-3 55v13v667h160z" />
<glyph unicode="&#xe1a;" horiz-adv-x="1043" d="M932 1074v-704q-10 -109 -58 -193q-20 -36 -50.5 -70.5t-74.5 -61.5t-102.5 -43.5t-134.5 -16.5q-77 0 -135.5 16.5t-102.5 43.5t-74.5 61.5t-50.5 70.5q-48 84 -57 193v704h160v-704q0 -44 11 -78t29.5 -58.5t42 -41.5t47.5 -28q57 -26 130 -29q73 3 130 29 q24 11 47.5 28t42 41.5t29.5 58.5t11 78v704h160z" />
<glyph unicode="&#xe1b;" horiz-adv-x="1036" d="M932 1466v-1104q-10 -109 -58 -193q-20 -36 -50.5 -70.5t-74.5 -61.5t-102.5 -43.5t-134.5 -16.5q-77 0 -135.5 16.5t-102.5 43.5t-74.5 61.5t-50.5 70.5q-48 84 -57 193v704h160v-704q0 -43 11 -75.5t29.5 -56.5t42 -40.5t47.5 -26.5q57 -25 130 -28q73 3 130 28 q24 10 47.5 26.5t42 40.5t29.5 56.5t11 75.5v1104h160z" />
<glyph unicode="&#xe1c;" horiz-adv-x="1174" d="M1091 1073v-812q-8 -77 -43 -138q-15 -26 -37.5 -50.5t-54 -44t-73.5 -31.5t-96 -12q-40 0 -74.5 10.5t-60 31t-40.5 51.5t-16 72q-1 -41 -16 -72t-41 -51.5t-60.5 -31t-74.5 -10.5q-54 0 -96 12t-73.5 31.5t-53.5 44t-37 50.5q-35 61 -44 138v812h259v-150h-99v-601 q0 -70 17 -108t40 -55.5t46 -20.5t34 -3h7q42 0 66 22t36.5 51t15.5 58t3 44v12v751h142v-751v-12q0 -15 4 -44t17 -58t37.5 -51t66.5 -22h8q11 0 33 3t43.5 20.5t38 55.5t16.5 108v751h160z" />
<glyph unicode="&#xe1d;" horiz-adv-x="1166" d="M1087 1460v-1199q-8 -77 -43 -138q-15 -26 -37.5 -50.5t-54 -44t-73.5 -31.5t-96 -12q-40 0 -74.5 10.5t-60 31t-40.5 51.5t-16 72q-1 -41 -16 -72t-41 -51.5t-60.5 -31t-74.5 -10.5q-54 0 -96 12t-73.5 31.5t-53.5 44t-37 50.5q-35 61 -44 138v812h259v-150h-99v-601 q0 -70 17 -108t40 -55.5t46 -20.5t34 -3h7q42 0 66 22t36.5 51t15.5 58t3 44v12v751h142v-751v-12q0 -15 3 -44t15 -58t36 -51t66 -22h8q11 0 34 3t45.5 20.5t39.5 55.5t17 108v1138h160z" />
<glyph unicode="&#xe1e;" horiz-adv-x="1178" d="M1092 1073v-812q-8 -77 -43 -138q-15 -26 -37.5 -50.5t-54 -44t-73.5 -31.5t-96 -12q-40 0 -74.5 10.5t-60 31.5t-40.5 52t-16 72q-1 -41 -16 -72t-41 -52t-60.5 -31.5t-74.5 -10.5q-54 0 -96 12t-73.5 31.5t-53.5 44t-37 50.5q-35 61 -44 138v812h160v-750 q0 -71 17 -109t40 -55.5t46 -20.5t34 -3h7q42 0 66 22t36.5 51t15.5 58t3 44v13v750h142v-750v-13q0 -15 4 -44t16.5 -58t37 -51t66.5 -22h8q11 0 33 3t44 20.5t38.5 55.5t16.5 109v750h160z" />
<glyph unicode="&#xe1f;" horiz-adv-x="1174" d="M1093 1460v-1199q-8 -77 -43 -138q-15 -26 -37.5 -50.5t-54 -44t-73.5 -31.5t-96 -12q-40 0 -74.5 10.5t-60 31.5t-40.5 52t-16 72q-1 -41 -16 -72t-41 -52t-60.5 -31.5t-74.5 -10.5q-54 0 -96 12t-73.5 31.5t-53.5 44t-37 50.5q-35 61 -44 138v812h160v-750 q0 -71 17.5 -109t40.5 -55.5t46 -20.5t34 -3h7q42 0 66 22t36 51t15 58t3 44v13v750h142v-750v-13q0 -15 3.5 -44t16.5 -58t37 -51t66 -22h8q11 0 33.5 3t44.5 20.5t38.5 55.5t16.5 109v1137h160z" />
<glyph unicode="&#xe20;" horiz-adv-x="1101" d="M580 1080q104 -3 175.5 -33t118 -73.5t72.5 -94t38 -95.5t14.5 -78t2.5 -41v-665h-160v665q0 64 -17.5 107.5t-44.5 72t-59 43.5t-61 22.5t-50.5 8.5t-27.5 1q-49 0 -86 -11t-64.5 -29t-46.5 -41t-31 -47q-29 -56 -32 -127v-665h-259v150h99v672q32 61 71.5 104t81 71.5 t82 45t75 25t60.5 10.5t39 2h10v0z" />
<glyph unicode="&#xe21;" horiz-adv-x="1031" d="M932 1073v-667v-13q0 -18 -3 -55t-15.5 -82.5t-36.5 -93.5t-66.5 -87t-106 -64.5t-154.5 -25.5h-37q-68 5 -123 24q-23 8 -46 20t-41 29t-30 39.5t-13 52.5v-150h-160v1073h160v-667q0 -4 1.5 -26t9 -52t23 -64t43.5 -62.5t71 -47.5t105 -19q6 0 27.5 1.5t50.5 9t61 23.5 t58.5 46t44 76.5t17.5 114.5v667h160z" />
<glyph unicode="&#xe22;" horiz-adv-x="1031" d="M913 1073v-772q0 -68 -20 -117t-51 -82.5t-69 -53.5t-73 -30.5t-63 -14t-40 -3.5h-200q-79 0 -135 16.5t-94 43t-60.5 59t-34 64.5t-15 60t-3.5 45q0 64 23 107t52.5 70t55.5 40t32 15q-32 6 -56.5 19.5t-42.5 32t-30.5 39.5t-21.5 42q-20 49 -24 109q0 58 11 102.5 t29.5 77.5t42 55.5t48.5 37.5q58 34 132 38h214v-150h-128q-36 0 -63 -7t-46.5 -18.5t-33 -26t-22.5 -29.5q-20 -35 -23 -80q0 -40 13 -67.5t33 -45.5t43.5 -28t44.5 -14.5t36 -5.5t18 -1h128v-150h-128q-42 0 -71.5 -9.5t-48.5 -23.5t-29.5 -31t-15.5 -33t-6 -27.5 t-1 -15.5q0 -40 11 -67.5t28 -45t38 -27.5t40 -14.5t34.5 -5t21.5 -0.5h4h193q57 0 89 23t49 52q19 33 25 76v772h160z" />
<glyph unicode="&#xe23;" horiz-adv-x="850" d="M705 797l-68 44q-25 16 -56 30.5t-62.5 25.5t-59.5 17t-46 6q-38 0 -72 -6.5t-60 -24t-41.5 -48t-15.5 -79.5t26.5 -76.5t69 -43t95.5 -23.5t106 -17t102 -35.5t86.5 -65.5t60 -89t22.5 -106q0 -83 -30 -144t-81.5 -100.5t-121 -58.5t-147.5 -19q-110 0 -187.5 24.5 t-128.5 54.5q-59 34 -98 79l106 104q19 -19 51 -39t72.5 -36t87 -26t95.5 -10q50 0 90.5 12.5t69 35.5t43.5 54t15 69q0 39 -13 63.5t-30.5 38.5t-35.5 19.5t-28 7.5q-4 1 -32.5 5.5t-64.5 10.5l-72 12t-54 10q-12 2 -34 8.5t-48.5 19t-54 33t-50 52t-36.5 75t-14 101.5 q0 87 31 147.5t81 98.5t113 55t127 17q66 0 120.5 -15t94.5 -32q47 -20 84 -46l82 -56z" />
<glyph unicode="&#xe24;" horiz-adv-x="1047" d="M519 1080q78 -2 137 -20t103.5 -45.5t75 -62.5t50.5 -72t31 -73t16.5 -65.5t6.5 -50t1 -26.5v-1135h-160v1135q0 64 -17.5 107.5t-44.5 72t-59.5 43.5t-61.5 22.5t-50.5 8.5t-27.5 1q-49 0 -86 -11t-64.5 -29t-46 -41t-30.5 -47q-28 -56 -32 -127v-515h99v-150h-259v822 q33 61 72 104t80.5 71.5t82 45t75 25t60.5 10.5t39 2h10v0z" />
<glyph unicode="&#xe25;" horiz-adv-x="966" d="M473 1080q100 0 170.5 -26.5t117 -67.5t73 -90t40 -95.5t16.5 -83.5t3 -53v-10v-654h-160v316q0 46 -21 77.5t-52.5 52t-68 32t-68 17t-52.5 6.5l-21 1q-3 0 -19.5 -1t-41 -6.5t-52.5 -16t-53.5 -30.5t-46 -50.5t-28.5 -74.5q-3 -14 -3 -26q0 -34 17 -58t43 -40t58.5 -26 t64 -15t57.5 -6.5t41 -1.5h14v-150h-180q-56 0 -105.5 24t-86.5 65.5t-58 96t-21 114.5q0 59 26.5 120t88.5 118q37 34 76 57.5t78 37t77 19.5t74 6q55 0 103.5 -10.5t83.5 -22.5q41 -15 76 -33v62q0 50 -11 88t-29.5 66t-42 47.5t-47.5 31.5q-57 29 -130 33q-65 0 -110 -23 t-74 -56.5t-44.5 -70t-22.5 -63.5h-168q6 89 34.5 151t69 103.5t87.5 65.5t90.5 35.5t78 14.5t49.5 3h10v0z" />
<glyph unicode="&#xe26;" horiz-adv-x="1128" d="M553 1080q104 -3 175.5 -33t118 -73.5t72.5 -94t38 -95.5t14.5 -78t2.5 -41v-1135h-160v1135q0 64 -17.5 107.5t-44.5 72t-59.5 43.5t-61.5 22.5t-50.5 8.5t-27.5 1q-49 0 -86 -11t-64.5 -29t-46 -41t-30.5 -47q-28 -56 -32 -127v-665h-259v150h99v672q32 61 71.5 104 t81 71.5t82 45t75 25t60.5 10.5t39 2h10v0z" />
<glyph unicode="&#xe27;" horiz-adv-x="866" d="M427 1080q12 0 43 -3t70 -15t81.5 -36t77.5 -65.5t58 -104t23 -150.5v-356q-5 -103 -45 -183q-17 -34 -43 -67t-64 -58.5t-89.5 -41t-118.5 -15.5q-69 0 -121 16.5t-90.5 43t-64.5 60.5t-42 69q9 6 27 16.5t38 22.5t38.5 22.5t28.5 15.5q17 -44 48 -67.5t62 -34.5 q36 -13 76 -14q56 7 100 33q19 11 37 27t32 38t22.5 51t8.5 67v355q-5 59 -27 107q-10 20 -24.5 39t-35 34t-48.5 24.5t-65 9.5q-51 0 -88.5 -9.5t-64.5 -29.5t-47 -52t-37 -77h-162q8 73 34.5 133.5t75 103.5t120 67t169.5 24h3h4z" />
<glyph unicode="&#xe28;" horiz-adv-x="1058" d="M992 1088q0 -8 -18 -29t-42.5 -44.5t-49.5 -43.5t-39 -25q33 -40 52 -84t28 -83t11.5 -70t2.5 -45v-10v-654h-160v654q0 50 -11 88t-29.5 66t-42 47.5t-47.5 31.5q-57 29 -130 33q-47 0 -82.5 -11.5t-62.5 -30.5t-46 -42.5t-32 -48.5q-30 -59 -37 -133v-108 q46 26 97.5 40t108.5 14q51 0 97 -11v-166q-20 10 -44.5 11.5t-52.5 1.5q-74 0 -129 -36q-28 -18 -46.5 -44.5t-30.5 -59.5v-296h-160v665q0 99 26 168.5t66.5 115.5t89 72.5t94 39.5t82 16t52.5 3h10q45 0 82.5 -5t70.5 -15q2 0 26.5 4.5t57 19.5t67 42.5t56.5 73.5 q29 -28 53 -52l20 -20l18.5 -18.5t15 -14t8.5 -7.5z" />
<glyph unicode="&#xe29;" horiz-adv-x="1093" d="M1020 545h-100v-175q-10 -109 -58 -193q-20 -36 -50.5 -70.5t-74.5 -61.5t-102.5 -43.5t-134.5 -16.5q-77 0 -135.5 16.5t-102.5 43.5t-74.5 61.5t-50.5 70.5q-48 84 -57 193v719h160v-719q0 -44 11 -78t29.5 -58.5t42 -41.5t47.5 -28q57 -26 130 -29q73 3 130 29 q24 11 47.5 28t42 41.5t29.5 58.5t11 78v175h-188q-26 0 -40 10.5t-21 24.5q-8 16 -10 36v159h150v-80h109v394h160v-394h100v-150z" />
<glyph unicode="&#xe2a;" horiz-adv-x="997" d="M962 1089q0 -5 -8 -17t-21.5 -27t-30.5 -31t-33.5 -30t-31 -24.5t-23.5 -13.5q32 -40 50.5 -84t27.5 -83t11.5 -70t2.5 -45v-10v-654h-159v316q0 46 -21 77.5t-52.5 52t-68 32t-68 17t-53 6.5l-21.5 1q-3 0 -19.5 -1t-40.5 -6.5t-52 -16t-54 -30.5t-46.5 -50.5 t-28.5 -74.5q-2 -7 -2 -13.5v-12.5q0 -34 17 -58t43 -40t58.5 -26t63.5 -15t57.5 -6.5t40.5 -1.5h15v-150h-181q-56 0 -105.5 24t-86 65.5t-58 96t-21.5 114.5q0 59 27 120t89 118q37 34 76 57.5t78 37t77 19.5t74 6q55 0 103.5 -10.5t83.5 -22.5q41 -15 76 -33v62 q0 50 -11 88t-29.5 66t-42 47.5t-47.5 31.5q-57 29 -130 33q-65 0 -110 -23t-74 -56.5t-45 -70t-23 -63.5h-168q6 89 34.5 151t69 103.5t87.5 65.5t90.5 35.5t78 14.5t49.5 3h11q75 0 153 -21q42 6 81 24q33 15 68 42.5t58 75.5l53 -53l20 -20t18.5 -18t15 -14t8.5 -7z" />
<glyph unicode="&#xe2b;" horiz-adv-x="1026" d="M104 1075h160v-275h358q28 4 53 20q21 14 42 40t32 73v142h160v-157q0 -14 -6 -38t-18 -51.5t-29.5 -56t-40.5 -50.5q31 -28 56 -67q21 -33 38.5 -81t17.5 -109v-465h-160v465l-2 14t-7.5 34.5t-15.5 44.5t-26 45t-39 34.5t-55 13.5h-358v-651h-160v1075z" />
<glyph unicode="&#xe2c;" horiz-adv-x="1174" d="M1091 1398q0 -60 -30 -98.5t-87 -52.5q54 -14 83 -47t34 -82v-858q-9 -77 -44 -138q-15 -26 -37.5 -50.5t-54 -44t-73 -31t-95.5 -11.5q-40 0 -74.5 10.5t-60 31.5t-40.5 52t-16 72q-2 -41 -17 -72t-40.5 -52t-60 -31.5t-74.5 -10.5q-54 0 -96 11.5t-73.5 31t-54 44 t-37.5 50.5q-35 61 -44 138v813h161v-750q0 -71 17 -109t39.5 -55.5t45.5 -20.5t34 -3h8q42 0 66 22t36.5 51t15.5 58t3 44v13v750h142v-750v-13q0 -15 3 -44t15 -58t36 -51t66 -22h7q11 0 34 3t46 20.5t40 55.5t17 109v758q0 102 -142 102h-53v124h53q70 0 106 31.5 t36 91.5v30h160v-62v0z" />
<glyph unicode="&#xe2d;" horiz-adv-x="981" d="M926 370q-9 -109 -57 -193q-20 -36 -51 -70.5t-75 -61.5t-102.5 -43.5t-134.5 -16.5q-77 0 -135.5 16.5t-102.5 43.5t-74.5 61.5t-50.5 70.5q-48 84 -57 193v217h300v-150h-140v-67q0 -44 11 -78t29.5 -58.5t42 -41.5t47.5 -28q57 -26 130 -29q73 3 130 29q24 11 47.5 28 t42 41.5t29.5 58.5t11 78v325q0 42 -11 74t-29.5 56t-42 40t-47.5 27q-57 25 -130 28h-13q-17 0 -50 -5.5t-69.5 -22.5t-69.5 -48.5t-49 -84.5h-160q6 27 18 61.5t33 70.5t51.5 70t74 60.5t101.5 42.5t133 16q76 0 134.5 -16.5t102.5 -44t75 -62t51 -70.5q48 -84 57 -192 v-325z" />
<glyph unicode="&#xe2e;" horiz-adv-x="1020" d="M995 1088q0 -8 -17.5 -29.5t-42 -45.5t-49.5 -44t-39 -26q34 -42 53.5 -86t28.5 -80q11 -42 13 -82v-325q-9 -109 -57 -193q-20 -36 -51 -70.5t-75 -61.5t-102.5 -43.5t-134.5 -16.5q-77 0 -135.5 16.5t-102.5 43.5t-74.5 61.5t-50.5 70.5q-48 84 -57 193v217h300v-150 h-140v-67q0 -44 11 -78t29.5 -58.5t42 -41.5t47.5 -28q57 -26 130 -29q73 3 130 29q24 11 47.5 28t42 41.5t29.5 58.5t11 78v325q0 42 -11 74t-29.5 56t-42 40t-47.5 27q-57 25 -130 28h-13q-17 0 -50 -5.5t-69.5 -22.5t-69.5 -48.5t-49 -84.5h-160q6 27 18 61.5t33 70.5 t51.5 70t74 60.5t101.5 42.5t133 16q44 0 81.5 -5.5t69.5 -15.5q41 6 80 24q33 15 68 42t58 75q29 -28 54 -52q21 -20 39.5 -38t22.5 -22z" />
<glyph unicode="&#xe2f;" horiz-adv-x="754" d="M653 1073v-1073h-160v773q-23 -11 -45 -17t-40 -9t-31 -3.5t-17 -0.5h-9q-11 0 -36 2.5t-56.5 13t-64.5 31.5t-60.5 58t-45 91.5t-17.5 133.5h156q-1 -2 -1 -6v-15q0 -17 4 -43t17 -51t38.5 -43t69.5 -19h9q41 1 66 17t39 38.5t19 47.5t5 44q0 10 -0.5 16t-0.5 9v5h161z " />
<glyph unicode="&#xe30;" horiz-adv-x="546" d="M206 978v-80h281v-150h-360q-26 0 -40 10.5t-21 24.5q-8 16 -10 36v159h150zM206 327v-80h281v-150h-360q-26 0 -40 10.5t-21 24.5q-8 16 -10 36v159h150z" />
<glyph unicode="&#xe31;" d="M-425 1431v-80h402v-150h-481q-26 0 -40 10.5t-21 24.5q-8 16 -10 36v159h150z" />
<glyph unicode="&#xe32;" horiz-adv-x="658" d="M255 1080q6 0 29.5 -1.5t55.5 -10t67 -27.5t64.5 -54t49 -89t19.5 -133v-765h-160v765q-2 43 -16 77q-6 15 -15 29t-22 25t-30.5 17.5t-40.5 6.5q-40 0 -67.5 -9.5t-45.5 -21.5t-28.5 -23.5t-15.5 -16.5l-110 115q26 32 65 58q33 22 82.5 40t118.5 18z" />
<glyph unicode="&#xe33;" horiz-adv-x="692" d="M291 1080q6 0 29.5 -2t55.5 -11t67 -28.5t64.5 -54.5t49 -88.5t19.5 -130.5v-765h-160v765q-2 43 -16 77q-6 15 -15 29t-22 25t-30.5 17.5t-40.5 6.5q-40 0 -67.5 -9.5t-45.5 -21.5t-28.5 -23.5t-15.5 -16.5l-110 115q26 32 65 58q33 22 82.5 40t118.5 18zM-387 1533 q39 0 73 -14.5t59.5 -40t40.5 -59.5t15 -73t-15 -73t-40.5 -59.5t-59.5 -40t-73 -14.5t-73 14.5t-59.5 40t-40 59.5t-14.5 73t14.5 73t40 59.5t59.5 40t73 14.5zM-387 1284q26 0 44.5 18t18.5 44t-18.5 44t-44.5 18t-44 -18t-18 -44t18 -44t44 -18z" />
<glyph unicode="&#xe34;" d="M-158 1353v-153h-598v153h598z" />
<glyph unicode="&#xe35;" d="M-226 1446v-246h-598v150h448v96h150z" />
<glyph unicode="&#xe36;" d="M-318 1575q39 0 73 -15t59.5 -40.5t40 -59.5t14.5 -72q0 -39 -15 -73.5t-40.5 -60t-59.5 -40t-72 -14.5h-620v152h436q-2 9 -3 18t-1 18q0 38 14.5 72t40 59.5t60 40.5t73.5 15zM-318 1326q26 0 44 18t18 44t-18 43.5t-44 17.5t-44.5 -17.5t-18.5 -43.5t18.5 -44 t44.5 -18z" />
<glyph unicode="&#xe37;" d="M-139 1461v-261h-658v150h269v111h150v-111h89v111h150z" />
<glyph unicode="&#xe38;" d="M-296 -254h-76v150h148q32 0 55 -23q23 -22 23 -54v-315h-150v242z" />
<glyph unicode="&#xe39;" d="M-150 -81v-273q0 -29 -20 -46q-17 -20 -45 -20h-205q-27 0 -46 20q-19 19 -19 46v146h-65v127h126q29 0 46 -20q11 -8 15.5 -20t4.5 -25v-146h81v211h127z" />
<glyph unicode="&#xe3a;" d="M-200 -316q-23 0 -42.5 8.5t-34 23t-23 34t-8.5 42.5q0 22 8.5 41.5t23 34.5t34 23.5t42.5 8.5q22 0 41.5 -8.5t34.5 -23.5t23.5 -34.5t8.5 -41.5q0 -23 -8.5 -42.5t-23.5 -34t-34.5 -23t-41.5 -8.5z" />
<glyph unicode="&#xe3b;" d="M300 0h-300v300h300v-300z" />
<glyph unicode="&#xe3c;" />
<glyph unicode="&#xe3d;" />
<glyph unicode="&#xe3e;" />
<glyph unicode="&#xe3f;" horiz-adv-x="1221" d="M933 618q62 -49 98 -111.5t36 -147.5q0 -74 -28.5 -139.5t-78 -114.5t-115 -77t-138.5 -28h-33v-180h-160v180h-288v1240h288v179h160v-179h33q75 0 140 -26.5t114 -73t77 -110.5t28 -138q0 -84 -35.5 -153.5t-97.5 -120.5zM386 696h128v394h-128v-394zM514 150v401h-128 v-401h128zM708 150q41 0 77 17.5t63 46.5t42.5 66.5t15.5 78.5q0 40 -15 74t-41.5 59.5t-63 40.5t-78.5 18h-34v-401h34zM708 696q41 0 77 15t63 41.5t42.5 62.5t15.5 77t-16 77t-43 63t-63 42.5t-77 15.5h-33v-394h34z" />
<glyph unicode="&#xe40;" horiz-adv-x="366" d="M262 0h-162v1073h162v-1073z" />
<glyph unicode="&#xe41;" horiz-adv-x="681" d="M245 0h-162v1073h162v-1073zM581 0h-162v1073h162v-1073z" />
<glyph unicode="&#xe42;" horiz-adv-x="439" d="M190 -1v1088q0 31 -14.5 61.5t-35.5 61t-46.5 62t-46.5 63.5t-35.5 66t-14.5 70q0 48 11.5 103t41.5 102.5t81 79t130 31.5h410v-150h-371q-40 -3 -71 -21q-13 -8 -25.5 -20t-22.5 -29.5t-16 -41.5t-6 -55q0 -40 12.5 -64.5t34 -49.5t52 -59.5t66.5 -93.5q7 -16 13 -37 q5 -18 9 -44.5t4 -60.5v-1062h-160z" />
<glyph unicode="&#xe43;" horiz-adv-x="485" d="M169 0v1088q0 38 8.5 70.5t24 61t37 54.5t46.5 51t40 45t23 37t10.5 33t2.5 33q0 41 -13.5 71.5t-37 51t-54.5 30.5t-65 10q-64 0 -98.5 -12t-50.5 -26q-18 -17 -21 -37h-136q-1 1 -1 3v9q0 11 3 31.5t13 44t30 48t54 44.5t84.5 32.5t122.5 12.5q75 0 127.5 -16.5 t87.5 -43t55.5 -59.5t30.5 -66t12.5 -62t2.5 -48v-19q0 -22 -4 -45.5t-15 -50.5t-31 -58.5t-51 -69.5q-29 -35 -44 -64.5t-23 -50.5q-9 -25 -10 -45v-1088h-160z" />
<glyph unicode="&#xe44;" horiz-adv-x="462" d="M100 1789q51 -6 89.5 -22.5t67 -39.5t48 -50t31.5 -54q29 -64 33 -142v-1481h-160v1481q0 21 -11 42.5t-24 38.5q-16 20 -35 40l-129 -128l-155 207l100 93l67 -99l78 114v0z" />
<glyph unicode="&#xe45;" horiz-adv-x="690" d="M307 1076q6 0 29.5 -2t55.5 -11t67 -28.5t64.5 -54.5t49 -88.5t19.5 -130.5v-1026h-160v1026q-3 37 -17 67q-12 25 -37 46t-71 21q-37 0 -64.5 -9.5t-46 -21.5t-30 -23.5l-16.5 -16.5l-109 136q26 32 65 58q33 22 82.5 40t118.5 18z" />
<glyph unicode="&#xe46;" horiz-adv-x="893" d="M787 -263h-160v960q0 15 -2.5 41.5t-9.5 55t-20 55t-35 42.5l-154 -154l-153 154q-24 -18 -37 -47.5t-20 -60.5t-8.5 -57.5t-1.5 -37.5v-7h-160q0 96 19 163t47 110.5t61.5 67.5t63 35.5t51 13.5t26.5 2l98 -98l14 -14q42 42 65 64.5t33.5 33l12.5 12.5l2 2q4 0 25 -2 t50 -13t62 -34t61.5 -64.5t48 -105t21.5 -155.5v-18v-944z" />
<glyph unicode="&#xe47;" d="M-174 1485h-455q-14 0 -23.5 -7t-15.5 -18.5t-9 -25t-3 -25.5q0 -14 3.5 -28.5t10 -26t15.5 -19t20 -7.5q16 0 25.5 8t14.5 19t6.5 23t1.5 21v12h123v-8q0 -8 1.5 -20.5t6.5 -24.5t15 -21t27 -9t26.5 8.5t14.5 20t6.5 24t1.5 20.5v10h128q0 -63 -17.5 -103.5t-44 -64.5 t-57 -33.5t-56.5 -9.5t-46.5 6t-35.5 14q-18 9 -31 21q-5 -4 -16.5 -11t-27 -13.5t-33 -11.5t-33.5 -5q-11 0 -28 2t-36.5 9t-39.5 20.5t-36 36.5t-26 57t-10 83q0 68 24.5 112t55.5 69.5t60 35.5t38 10h455v-150z" />
<glyph unicode="&#xe48;" d="M-196 1915v-304h-150v304h150z" />
<glyph unicode="&#xe49;" d="M-150 1755v-150h-444v201h-80v150h159q19 -2 35 -10q14 -7 25 -21.5t11 -39.5v-130h294z" />
<glyph unicode="&#xe4a;" d="M85 1707v-150h-361q0 60 -7 93.5t-15 50.5q-10 19 -22 25l-126 -126l-126 126q-12 -6 -22 -25q-8 -17 -15 -50.5t-7 -93.5h-150q0 55 10 113t36 106.5t71.5 82.5t116.5 40l86 -88l86 88q50 0 86.5 -17t62 -44.5t42 -62t25.5 -68.5h229z" />
<glyph unicode="&#xe4b;" d="M-158 1698h-103v-102h-150v102h-102v150h102v103h150v-103h103v-150z" />
<glyph unicode="&#xe4c;" d="M-375 1601v159q1 19 10 35q7 14 21.5 25t40.5 11h352v-150h-274v-80h-150z" />
<glyph unicode="&#xe4d;" d="M-604 1533q39 0 73 -14.5t59.5 -40t40.5 -59.5t15 -73t-15 -73t-40.5 -59.5t-59.5 -40t-73 -14.5t-73 14.5t-59.5 40t-40 59.5t-14.5 73t14.5 73t40 59.5t59.5 40t73 14.5zM-604 1284q26 0 44.5 18t18.5 44t-18.5 44t-44.5 18t-44 -18t-18 -44t18 -44t44 -18z" />
<glyph unicode="&#xe4e;" />
<glyph unicode="&#xe4f;" horiz-adv-x="862" d="M430 92q-70 0 -131 26.5t-106.5 72t-72 106.5t-26.5 131t27 131.5t72.5 107t106.5 71.5t130 26q68 0 129 -25.5t107.5 -70.5t74 -106.5t27.5 -133.5q0 -70 -26.5 -131.5t-72 -107t-107.5 -71.5t-132 -26zM717 428q0 59 -23 111.5t-62 91.5t-91 61.5t-111 22.5 t-111.5 -22.5t-91.5 -61.5t-61.5 -91.5t-22.5 -111.5q0 -58 22 -110t60 -91.5t90.5 -62.5t114.5 -23q61 0 114 23t91 62.5t60 91.5t22 110zM430 223q-43 0 -80.5 16t-65 43.5t-43.5 65t-16 80.5t16 80.5t43.5 65t65 43.5t80.5 16t81 -16t66 -43.5t44 -65t16 -80.5t-16 -80.5 t-44 -65t-66 -43.5t-81 -16z" />
<glyph unicode="&#xe50;" horiz-adv-x="989" d="M500 1080q76 0 134.5 -16.5t102.5 -44t75 -62t51 -70.5q48 -84 57 -192v-325q-9 -109 -57 -193q-20 -36 -51 -70.5t-75 -61.5t-102.5 -43.5t-134.5 -16.5q-77 0 -135.5 16.5t-102.5 43.5t-74.5 61.5t-50.5 70.5q-48 84 -57 193v325q9 108 57 192q20 36 50.5 70.5t74.5 62 t102.5 44t135.5 16.5zM760 695q0 42 -11 74t-29.5 56t-42 40t-47.5 27q-57 25 -130 28q-73 -3 -130 -28q-24 -11 -47.5 -27t-42 -40t-29.5 -56t-11 -74v-325q0 -44 11 -78t29.5 -58.5t42 -41.5t47.5 -28q57 -26 130 -29q73 3 130 29q24 11 47.5 28t42 41.5t29.5 58.5t11 78 v325z" />
<glyph unicode="&#xe51;" horiz-adv-x="1057" d="M527 1080q76 0 134.5 -16.5t102.5 -44t75 -62t51 -70.5q48 -84 57 -192v-326q-10 -108 -58 -192q-20 -36 -51 -70.5t-75 -61.5t-102.5 -43.5t-134.5 -16.5t-135 16.5t-102.5 43.5t-74 62t-50.5 71t-31.5 70.5t-17.5 61.5h158q7 -33 22 -58t34.5 -43.5t41.5 -31.5t44 -21 q51 -19 112 -22q73 3 130 29q24 11 47.5 28t42 41.5t29.5 58.5t11 78v326q0 42 -11 74t-29.5 56t-42 40t-47.5 27q-57 25 -130 28q-73 -3 -130 -28q-24 -11 -47.5 -27t-42 -40t-29.5 -56t-11 -74v-20q2 -18 10 -45t27 -52.5t51.5 -43.5t85.5 -18h115v-146h-210 q-67 5 -120 38q-23 14 -44 36t-38 54.5t-27 76t-10 100.5v20q9 108 57 192q20 36 50.5 70.5t74.5 62t102.5 44t135.5 16.5z" />
<glyph unicode="&#xe52;" horiz-adv-x="1255" d="M1086 965q61 -77 73 -189v-464q0 -59 -10.5 -103t-27.5 -77t-39 -55.5t-45 -37.5q-54 -34 -122 -39h-569q-68 5 -122 39q-23 15 -45 37.5t-39 55.5t-27.5 77t-10.5 103v988h160v-988q3 -18 11.5 -46t28.5 -53.5t54 -44t88 -18.5h373q54 0 88 18.5t54 44t28.5 53.5 t11.5 46v404q0 66 -23 114q-24 48 -64 75l-173 -112l-172 112q-42 -28 -65 -75q-23 -48 -23 -114v-95h-160v155q12 110 74 189t158 115l188 -116l188 116q95 -36 159 -115z" />
<glyph unicode="&#xe53;" horiz-adv-x="1247" d="M1121 876q8 -25 14 -50t10 -54v-772h-160v715q0 34 -6.5 60.5t-17.5 51.5q-11 26 -27.5 44t-36.5 34l-185 -115l-208 122q-33 0 -66 -7.5t-63.5 -23.5t-55.5 -39.5t-41 -55.5q-12 -20 -17.5 -44.5t-5.5 -50.5v-311q0 -50 20 -98t62 -80q36 -27 77 -39.5t90 -12.5h200 v-150h-200q-42 3 -78 7t-69.5 13t-66 25t-66.5 44q-29 24 -53 52.5t-41 64.5q-35 66 -35 154v350q0 41 8 79.5t25 71.5q34 70 90 117t133 73q37 12 75.5 18.5t77.5 10.5l208 -119l201 119q23 -8 45 -20.5t43 -26.5q20 -17 37 -33.5t34 -36.5q14 -20 26 -41t23 -46z" />
<glyph unicode="&#xe54;" horiz-adv-x="1158" d="M668 371q7 -42 22 -73t34.5 -54.5t41.5 -39.5t44 -26q51 -25 112 -28h154v-150h-622q-42 4 -78 8t-69.5 13t-66 25t-66.5 44q-29 24 -53 52.5t-41 64.5q-35 66 -35 154v350q0 41 8 79.5t25 71.5q34 70 90 117t133 73q36 11 71.5 16t77.5 5h260q38 0 67 13t49.5 34 t34.5 46.5t23 51t13.5 47.5t6.5 35h172q-1 -63 -16 -127.5t-46.5 -118.5t-80.5 -90t-118 -41h-361q-33 0 -66 -9.5t-63.5 -27t-55.5 -42.5t-41 -57q-12 -20 -17.5 -44.5t-5.5 -50.5v-311q0 -57 22 -102q22 -44 61 -72q33 -29 75 -43t91 -14h181q-21 0 -43.5 24t-40.5 58 t-29.5 72t-11.5 67v150h346v-150h-188z" />
<glyph unicode="&#xe55;" horiz-adv-x="1185" d="M681 371q7 -42 22 -73t34.5 -54.5t41.5 -39.5t44 -26q51 -25 112 -28h154v-150h-622q-42 4 -78 8t-69.5 13t-66 25t-66.5 44q-29 24 -53 52.5t-41 64.5q-35 66 -35 154v350q0 41 8 79.5t25 72.5q17 33 39 62.5t51 53.5q56 47 133 73q10 3 19 5.5t19 4.5q-14 36 -14 73 q0 38 14.5 72t40 59.5t59.5 40t73 14.5t73 -14.5t59.5 -40t40.5 -59.5t15 -72q0 -17 -2.5 -32.5t-7.5 -29.5h20q38 0 67 13t49.5 34t34.5 46.5t23 51t13.5 47.5t6.5 35h172q-1 -63 -16 -127.5t-46.5 -118t-80.5 -89.5t-118 -42h-361q-33 0 -66 -9.5t-63.5 -27t-55.5 -42.5 t-41 -57q-12 -20 -17.5 -44.5t-5.5 -50.5v-311q0 -57 22 -102q22 -44 61 -72q33 -29 75 -43t91 -14h181q-21 0 -43.5 24t-40.5 58t-29.5 72t-11.5 67v150h346v-150h-188zM525 1196q-26 0 -44 -17.5t-18 -43.5q0 -24 14.5 -41t37.5 -21h21q22 4 37 21t15 41q0 26 -18.5 43.5 t-44.5 17.5z" />
<glyph unicode="&#xe56;" horiz-adv-x="1151" d="M641 1080q76 0 134.5 -16.5t102.5 -44t75 -62t51 -70.5q48 -84 57 -192v-325q-9 -109 -57 -193q-20 -36 -51 -70.5t-75 -61.5t-102.5 -43.5t-134.5 -16.5q-77 0 -136 16.5t-104 44t-76.5 62t-52.5 71t-33 71t-18 61.5v144h354v-144h-188q7 -33 22 -58t34.5 -43.5 t41.5 -31.5t44 -21q51 -19 112 -22q73 3 130 29q24 11 47.5 28t42 41.5t29.5 58.5t11 78v325q0 42 -11 74t-29.5 56t-42 40t-47.5 27q-57 25 -130 28q-73 -3 -130 -28q-24 -11 -47.5 -27t-42 -40t-29.5 -56t-11 -74v-19h-160v257q0 71 -16 111t-40 60t-53 26t-54 9v161 q58 0 102.5 -10.5t77.5 -27.5t55.5 -39t37.5 -45q34 -54 39 -122v-59q47 37 113 60t158 23z" />
<glyph unicode="&#xe57;" horiz-adv-x="1528" d="M1432 1300v-986q0 -77 -19.5 -130t-49 -88t-64.5 -54.5t-67 -28.5t-55.5 -11t-29.5 -2h-161v714q0 34 -6 61t-18 51q-11 26 -27.5 44t-36.5 34l-185 -114l-207 121q-33 0 -66.5 -7.5t-63.5 -23.5t-55.5 -39.5t-41.5 -55.5q-12 -20 -17.5 -44t-5.5 -50v-312q0 -50 20 -98 t63 -80q35 -27 76.5 -39t90.5 -12h199v-150h-199q-42 3 -78.5 6.5t-69.5 12.5t-65.5 25t-67.5 45q-29 23 -53.5 51.5t-41.5 63.5t-25.5 74t-8.5 81v351q0 40 8 79t25 72t39 63t51 54t62 41.5t71 30.5t76 19.5t78 9.5l207 -118l202 118q23 -8 45 -20.5t42 -26.5 q20 -17 37 -33t34 -36q14 -21 26.5 -42t23.5 -45q8 -26 13.5 -50.5t10.5 -53.5v-622q45 0 70.5 25.5t37.5 56.5q14 36 18 82v986h159z" />
<glyph unicode="&#xe58;" horiz-adv-x="1214" d="M803 507h346v-151q0 -41 -7.5 -79.5t-24.5 -71.5q-34 -69 -91 -117q-55 -47 -133 -73q-36 -12 -75 -18.5t-78 -11.5l-208 120l-200 -120q-24 9 -46 21.5t-42 26.5q-21 17 -38 33.5t-34 36.5q-14 20 -26 40.5t-23 46.5q-8 25 -14 50t-9 54v468q0 58 10.5 102.5t27.5 77 t38.5 55t44.5 37.5q54 34 122 39h452q57 0 93.5 28t58 66t30.5 76t12 58h172q-1 -63 -16.5 -127.5t-47 -118.5t-80.5 -90t-118 -42h-458q-54 0 -88 -18.5t-54 -44t-28.5 -53t-11.5 -45.5v-411q0 -35 6.5 -61t17.5 -51q11 -26 27.5 -44t37.5 -34l184 115l208 -122 q33 0 66.5 7.5t63.5 23.5t55.5 39.5t41.5 55.5q10 16 15 35.5t7 41.5h-186v150z" />
<glyph unicode="&#xe59;" horiz-adv-x="1427" d="M1586 1307q-1 -63 -16 -127.5t-46.5 -118.5t-80.5 -90t-118 -41h-136q-49 0 -90 -12.5t-76 -39.5q-42 -32 -62 -80t-20 -98v-700h-160v700q0 50 -20 98t-62 80q-71 53 -167 53h-40q-50 -1 -84.5 -14t-67.5 -38q-42 -32 -62 -80t-20 -98v-311q0 -27 5 -51.5t17 -44.5 q16 -32 41 -55.5t55.5 -39.5t63.5 -23.5t66 -7.5v-168q-38 5 -77 11t-75 18q-39 13 -72 31t-62 42t-51 53.5t-39 62.5q-17 34 -24.5 72.5t-7.5 79.5v351q0 43 8 82t26 72q17 36 41.5 64.5t53.5 52.5q33 27 63.5 43t62.5 25t66 13t73 7h40q42 -3 78 -7t69.5 -13t65.5 -25 t67 -44q13 -11 25.5 -22.5t23.5 -24.5q20 25 49 47q34 28 66 44t65.5 25t69.5 13t78 7h31q38 0 67 13t49.5 34t34.5 46.5t23 51t13.5 47.5t6.5 35h172z" />
<glyph unicode="&#xe5a;" horiz-adv-x="770" d="M669 1074v-1073h-160v773q-23 -11 -45 -17t-40 -9t-31 -3.5t-17 -0.5h-9q-11 0 -36 2.5t-56.5 13t-64.5 31.5t-60.5 58t-45 91.5t-17.5 133.5h156q-1 -2 -1 -6v-15q0 -17 4 -43t17 -51t38.5 -43t69.5 -19h9q41 1 66 17t39 38.5t19 47.5t5 44q0 10 -0.5 16t-0.5 9v5h161z " />
<glyph unicode="&#xe5b;" />
<glyph unicode="&#x2000;" horiz-adv-x="1009" />
<glyph unicode="&#x2001;" horiz-adv-x="2019" />
<glyph unicode="&#x2002;" horiz-adv-x="1009" />
<glyph unicode="&#x2003;" horiz-adv-x="2019" />
<glyph unicode="&#x2004;" horiz-adv-x="673" />
<glyph unicode="&#x2005;" horiz-adv-x="504" />
<glyph unicode="&#x2006;" horiz-adv-x="336" />
<glyph unicode="&#x2007;" horiz-adv-x="336" />
<glyph unicode="&#x2008;" horiz-adv-x="252" />
<glyph unicode="&#x2009;" horiz-adv-x="403" />
<glyph unicode="&#x200a;" horiz-adv-x="112" />
<glyph unicode="&#x200b;" />
<glyph unicode="&#x2010;" horiz-adv-x="829" d="M742 620v-150h-675v150h675z" />
<glyph unicode="&#x2011;" horiz-adv-x="829" d="M742 620v-150h-675v150h675z" />
<glyph unicode="&#x2012;" horiz-adv-x="829" d="M742 620v-150h-675v150h675z" />
<glyph unicode="&#x2013;" horiz-adv-x="857" d="M67 603h716v-150h-716v150z" />
<glyph unicode="&#x2014;" horiz-adv-x="854" d="M67 603h716v-150h-716v150z" />
<glyph unicode="&#x2018;" horiz-adv-x="403" d="M315 1177q4 -19 -5 -30q-4 -5 -10 -9q-41 -20 -65 -39t-36 -34t-15.5 -25.5t-3.5 -12.5q22 0 42 -8.5t35 -23t23.5 -34t8.5 -41.5t-8.5 -41.5t-23.5 -34t-35 -23t-42 -8.5q-23 0 -42.5 8.5t-34 23t-23 34t-9.5 41.5q-2 52 12 92.5t36 71t49 51.5t51.5 35t43 20.5 t24.5 8.5q9 2 14.5 -0.5t8.5 -7.5q4 -5 5 -14z" />
<glyph unicode="&#x2019;" horiz-adv-x="395" d="M92 851q-3 11 -1 18t6 12t10 9q41 20 65 39t36 34t15.5 25.5t3.5 12.5q-23 0 -42.5 8.5t-34.5 23t-23.5 34t-8.5 41.5t8.5 41.5t23.5 34t34.5 23t42.5 8.5q22 0 42 -8.5t34.5 -23t23 -34t9.5 -41.5q1 -52 -12.5 -92.5t-35.5 -71t-49 -51.5t-51.5 -35t-43 -20.5 t-24.5 -8.5q-9 -3 -14.5 0t-8.5 8q-4 5 -5 14z" />
<glyph unicode="&#x201a;" d="M-506 1440v-246h-598v150h448v96h150z" />
<glyph unicode="&#xf702;" d="M-506 1440v-246h-598v150h448v96h150z" />
<glyph unicode="&#x201e;" d="M-300 1527v-261h-658v150h269v111h150v-111h89v111h150z" />
<glyph unicode="&#xf704;" d="M-300 1527v-261h-658v150h269v111h150v-111h89v111h150z" />
<glyph unicode="&#x2020;" d="M-419 1504v-304h-150v304h150z" />
<glyph unicode="&#xf705;" d="M-419 1504v-304h-150v304h150z" />
<glyph unicode="&#x2021;" d="M-400 1346v-150h-444v201h-80v150h159q19 -2 35 -10q14 -7 25 -21.5t11 -39.5v-130h294z" />
<glyph unicode="&#xf706;" d="M-400 1346v-150h-444v201h-80v150h159q19 -2 35 -10q14 -7 25 -21.5t11 -39.5v-130h294z" />
<glyph unicode="&#x2022;" horiz-adv-x="702" d="M350 133q-52 0 -98.5 20.5t-81.5 55t-55.5 81t-20.5 99.5q0 52 20.5 99t56 81.5t82 55t97.5 20.5q52 0 99 -20.5t81.5 -55t55 -81.5t20.5 -99q0 -51 -20.5 -97.5t-55 -82t-81.5 -56t-99 -20.5z" />
<glyph unicode="&#x2026;" horiz-adv-x="1079" d="M150 104q23 0 39 -16t16 -39q0 -20 -16 -36.5t-39 -16.5q-22 0 -39 16.5t-17 36.5q0 23 17 39t39 16zM541 104q20 0 37.5 -16t17.5 -39q0 -20 -16 -36.5t-39 -16.5t-39.5 16.5t-16.5 36.5q0 23 16.5 39t39.5 16zM930 104q23 0 39 -16t16 -39q0 -20 -16 -36.5t-39 -16.5 q-22 0 -39 16.5t-17 36.5q0 23 17 39t39 16z" />
<glyph unicode="&#x202f;" horiz-adv-x="403" />
<glyph unicode="&#x2030;" d="M-329 1303h-103v-102h-150v102h-102v150h102v103h150v-103h103v-150z" />
<glyph unicode="&#xf708;" d="M-329 1303h-103v-102h-150v102h-102v150h102v103h150v-103h103v-150z" />
<glyph unicode="&#x2039;" d="M-213 1505v-304h-150v304h150z" />
<glyph unicode="&#xf70a;" d="M-213 1505v-304h-150v304h150z" />
<glyph unicode="&#x203a;" d="M-445 1974v-304h-150v304h150z" />
<glyph unicode="&#xf713;" d="M-445 1974v-304h-150v304h150z" />
<glyph unicode="&#x205f;" horiz-adv-x="504" />
<glyph unicode="&#x20ac;" horiz-adv-x="1110" d="M974 1088q0 -8 -16 -27.5t-39 -41.5t-47 -42t-40 -28q40 -47 66 -115.5t26 -168.5v-665h-161v297q-11 32 -29.5 59t-47.5 45q-28 17 -59.5 26.5t-69.5 9.5q-57 0 -97 -21v172q43 12 97 12q113 0 206 -55v109q-7 68 -37 123q-13 23 -32 45t-46 39.5t-63 28t-82 10.5 q-73 -5 -130 -32q-24 -12 -47.5 -29.5t-42 -43.5t-29.5 -61t-11 -80h-160v11q0 16 3 52.5t16.5 83t40 96t73 90t116.5 67t171 26.5h9q33 0 67 -4.5t73 -15.5q42 6 81 23q33 14 68 42t58 75q29 -28 53 -52l20 -20l18.5 -18.5t15 -14t8.5 -7.5z" />
<glyph unicode="&#xf700;" horiz-adv-x="1110" d="M974 1088q0 -8 -16 -27.5t-39 -41.5t-47 -42t-40 -28q40 -47 66 -115.5t26 -168.5v-665h-161v297q-11 32 -29.5 59t-47.5 45q-28 17 -59.5 26.5t-69.5 9.5q-57 0 -97 -21v172q43 12 97 12q113 0 206 -55v109q-7 68 -37 123q-13 23 -32 45t-46 39.5t-63 28t-82 10.5 q-73 -5 -130 -32q-24 -12 -47.5 -29.5t-42 -43.5t-29.5 -61t-11 -80h-160v11q0 16 3 52.5t16.5 83t40 96t73 90t116.5 67t171 26.5h9q33 0 67 -4.5t73 -15.5q42 6 81 23q33 14 68 42t58 75q29 -28 53 -52l20 -20l18.5 -18.5t15 -14t8.5 -7.5z" />
<glyph unicode="&#x2122;" d="M-517 1533q39 0 73 -14.5t59.5 -40t40.5 -59.5t15 -73t-15 -73t-40.5 -59.5t-59.5 -40t-73 -14.5t-73 14.5t-59.5 40t-40 59.5t-14.5 73t14.5 73t40 59.5t59.5 40t73 14.5zM-517 1284q26 0 44.5 18t18.5 44t-18.5 44t-44.5 18t-44 -18t-18 -44t18 -44t44 -18z" />
<glyph unicode="&#xf711;" d="M-517 1533q39 0 73 -14.5t59.5 -40t40.5 -59.5t15 -73t-15 -73t-40.5 -59.5t-59.5 -40t-73 -14.5t-73 14.5t-59.5 40t-40 59.5t-14.5 73t14.5 73t40 59.5t59.5 40t73 14.5zM-517 1284q26 0 44.5 18t18.5 44t-18.5 44t-44.5 18t-44 -18t-18 -44t18 -44t44 -18z" />
<glyph unicode="&#x25cc;" />
<glyph unicode="&#xe000;" horiz-adv-x="940" d="M0 940h940v-940h-940v940z" />
<glyph unicode="&#xf701;" d="M-360 1345v-153h-598v153h598z" />
<glyph unicode="&#xf70c;" d="M-46 1351v-150h-361q0 60 -7 93.5t-15 50.5q-10 19 -22 25l-126 -126l-126 126q-12 -6 -22 -25q-8 -17 -15 -50.5t-7 -93.5h-150q0 55 10 113t36 106.5t71.5 82.5t116.5 40l86 -88l86 88q50 0 86.5 -17t62 -44.5t42 -62t25.5 -68.5h229z" />
<glyph unicode="&#xf70e;" d="M-522 1205v159q1 19 10 35q7 14 21.5 25t40.5 11h352v-150h-274v-80h-150z" />
<glyph unicode="&#xf715;" d="M-316 1769v-150h-244q0 60 -7 93.5t-15 50.5q-10 19 -22 25l-126 -126l-126 126q-12 -6 -22 -25q-8 -17 -15 -50.5t-7 -93.5h-150q0 55 10 113t36 106.5t71.5 82.5t116.5 40l86 -88l86 88q50 0 86.5 -17t62 -44.5t42 -62t25.5 -68.5h112z" />
<glyph unicode="&#xf718;" d="M-296 -700h-76v150h148q32 0 55 -23q23 -22 23 -54v-315h-150v242z" />
<glyph unicode="&#xf719;" d="M-149 -550v-273q0 -29 -20 -46q-17 -20 -45 -20h-205q-27 0 -46 20q-19 19 -19 46v146h-65v127h126q29 0 46 -20q11 -8 15.5 -20t4.5 -25v-146h81v211h127z" />
<glyph unicode="&#xf71a;" d="M-208 -766q-23 0 -42.5 8.5t-34 23t-23 34t-8.5 42.5q0 22 8.5 41.5t23 34.5t34 23.5t42.5 8.5q22 0 41.5 -8.5t34.5 -23.5t23.5 -34.5t8.5 -41.5q0 -23 -8.5 -42.5t-23.5 -34t-34.5 -23t-41.5 -8.5z" />
<glyph horiz-adv-x="1704" d="M1619 1074v-704q-10 -109 -58 -193q-21 -36 -51.5 -70.5t-74.5 -61.5t-102.5 -43.5t-134.5 -16.5t-134.5 16.5t-102.5 43.5t-74.5 61.5t-50.5 70.5q-48 84 -58 193v294q0 60 -17.5 102t-44.5 69t-59.5 42.5t-61.5 22.5t-51 8.5t-28 1.5q-48 0 -85 -10.5t-64.5 -28 t-46 -39.5t-30.5 -45q-28 -55 -32 -123v-330q3 -53 23 -93q9 -17 22 -33.5t32.5 -29.5t45.5 -21t61 -8h115v-149h-214q-68 5 -122 39q-23 15 -44.5 37.5t-38.5 55.5t-27.5 77t-10.5 103v22v487q33 61 72 104t80 72t81.5 45.5t75 25t61 10.5t39.5 2h7q104 -3 176 -33 t119 -73.5t73 -94.5t38 -96t14.5 -78t2.5 -41v-294q0 -40 11 -70.5t29 -53t41.5 -38t47.5 -25.5q57 -24 130 -28q73 4 130 28q24 10 47.5 25.5t42 38t29.5 53t11 70.5v704h161z" />
<glyph horiz-adv-x="1161" d="M1092 1012q0 -60 -30 -98.5t-87 -52.5q54 -14 83 -47t34 -82v-472q-9 -77 -44 -138q-15 -26 -37.5 -50.5t-54 -44t-73 -31t-95.5 -11.5q-40 0 -74.5 10.5t-60 31.5t-40.5 52t-16 72q-2 -41 -17 -72t-40.5 -52t-60 -31.5t-74.5 -10.5q-54 0 -96 11.5t-73.5 31t-54 44 t-37.5 50.5q-35 61 -44 138v661h161v-598q0 -62 17 -96.5t39.5 -52t45.5 -21.5t34 -4h8q42 0 66 19.5t36.5 46t15.5 53.5t3 42v13v364h142v-364v-13q0 -15 3 -42t15 -53.5t36 -46t66 -19.5h7q11 0 34 4t46 21.5t40 52t17 96.5v372q0 102 -142 102h-53v124h53q70 0 106 31.5 t36 91.5v29h160v-61v0z" />
<glyph horiz-adv-x="973" d="M-166 1533q39 0 73 -14.5t59.5 -40t40.5 -59.5t15 -73t-15 -73t-40.5 -59.5t-59.5 -40t-73 -14.5t-73 14.5t-59.5 40t-40 59.5t-14.5 73t14.5 73t40 59.5t59.5 40t73 14.5zM-166 1272q31 0 52 21.5t21 51.5q0 31 -21 52.5t-52 21.5q-30 0 -51.5 -21.5t-21.5 -52.5 q0 -30 21.5 -51.5t51.5 -21.5zM515 1080q6 0 29.5 -2t55.5 -11t67 -28.5t64.5 -54.5t49 -88.5t19.5 -130.5v-765h-160v765q-2 43 -16 77q-6 15 -15 29t-22 25t-30.5 17.5t-40.5 6.5q-40 0 -67.5 -9.5t-45.5 -21.5t-28.5 -23.5t-15.5 -16.5l-110 115q26 32 65 58 q33 22 82.5 40t118.5 18z" />
<glyph />
<glyph />
<glyph horiz-adv-x="1878" d="M959 506h-23v10h23h24q6 1 11.5 1h11.5v-127h21v-9h-90v9h22v116zM1006 571q0 -10 -7 -17t-17 -7t-17.5 7t-7.5 17t7.5 17t17.5 7q9 0 16.5 -7t7.5 -17zM1053 558h21q7 0 13.5 1.5t13.5 2.5v-45h27v-10h-27v-95q0 -5 0.5 -11.5t8.5 -6.5q10 0 13 7t5 15l10 -2 q-5 -21 -18.5 -29.5t-34.5 -8.5q-24 0 -28 9t-4 22v100h-21v10h21v41zM1261 407h-1q-6 -17 -20.5 -24t-31.5 -7q-16 0 -24.5 3.5t-12 10t-4 16.5t-0.5 22v78h-24v10h24h23q6 1 12 1h12v-95q0 -14 1 -23t12 -9q7 0 13.5 4t11 10t7 12.5t2.5 10.5v79h-24v10h24h23q6 1 12 1h12 v-127h22v-9h-22q-6 0 -12 -0.5t-12 -1.5t-12 -1.5t-11 -0.5v30zM1445 400q-18 -24 -44 -24q-13 0 -24.5 6t-20 15.5t-13.5 21.5t-5 24q0 20 7 34t17.5 23t22.5 13.5t21 4.5q12 0 22.5 -6.5t15.5 -17.5h1v106h-27v10h27q12 0 23.5 1t23.5 2v-223h19v-9h-66v19zM1445 467 q0 17 -10.5 29.5t-24.5 12.5q-8 0 -13.5 -4t-5.5 -12v-90q0 -8 4 -13.5t12 -5.5q16 0 27 13t11 29v41zM307 504h91v-122h-28l-6 28q-4 -5 -10 -11.5t-15 -12t-21 -9t-29 -2.5q-31 2 -44.5 11.5t-21.5 17.5q-20 19 -28 48.5t-4.5 59t19 55.5t44.5 38q7 3 18 5.5t26 2.5 q16 0 36.5 -3.5t37.5 -20.5q20 -20 22.5 -34t3.5 -18h-43q-6 21 -21.5 29.5t-34.5 8.5q-20 0 -39 -13q-11 -9 -17 -23.5t-8 -30t0 -30t7 -24.5q7 -14 19.5 -26.5t32.5 -14.5q12 -1 26.5 3.5t25.5 17.5q9 11 10.5 19t2.5 13h-52v38zM431 515h34v-25h1q2 5 4.5 9.5t11.5 10.5 q5 4 10.5 6.5t13.5 1.5v-36q-11 1 -24 -1t-17 -24v-74h-34v132zM597 383q-4 4 -4 13q-9 -9 -18 -14t-24 -5q-42 0 -40 41q1 14 8.5 26t30.5 16q10 0 19 2t15 4q9 3 9 15t-23 12q-14 0 -18 -7t-4 -15h-32q0 16 6 25.5t14.5 14t17.5 6t16 1.5q11 0 19 -1.5t13 -3.5 q10 -5 17 -13.5t7 -24.5v-72q-1 -5 1.5 -9t5.5 -7v-4h-36zM593 445q-8 -5 -16.5 -5t-15.5 -2q-8 -2 -12.5 -8t-2.5 -14q2 -5 7 -9t16 -2q15 3 19.5 12t4.5 20v8zM690 515v-20q7 9 12.5 15t22.5 8q14 1 23 -5t14 -11q9 -10 14 -24.5t5.5 -30.5t-4 -30.5t-13.5 -24.5 q-9 -8 -17 -11.5t-22 -3.5t-20.5 5.5t-14.5 13.5v-67h-35v186h35zM695 472q-2 -4 -3.5 -11t-1.5 -15t1.5 -15t3.5 -11q5 -8 11 -11.5t12 -3.5t12 3.5t11 11.5q2 4 4 11t2 15t-2 15t-4 11q-5 8 -11 11.5t-12 3.5t-12 -3.5t-11 -11.5zM800 561h35v-64q5 8 14 14t19 6 q23 0 37 -10.5t14 -36.5v-89h-34v79q0 9 -4 17.5t-21 8.5q-16 0 -20.5 -7t-4.5 -15v-83h-35v180zM1566 452v-43q0 -25 28 -25q20 0 35 10t20 30l8 -2q-7 -24 -24.5 -35t-41.5 -11q-32 0 -56 17.5t-24 52.5q0 17 7 30.5t18 22.5t25.5 14t28.5 5q26 0 46.5 -16.5t20.5 -42.5 q0 -6 -6 -6.5t-10 -0.5h-75zM1611 461v33q0 15 -24 15q-21 0 -21 -16v-32h45zM1726 404q0 -12 -8.5 -20t-19.5 -8t-19.5 8.5t-8.5 19.5t8.5 19.5t19.5 8.5t19.5 -8.5t8.5 -19.5z" />
<glyph horiz-adv-x="1662" d="M1578 1072v-1073q0 -77 -19.5 -130.5t-49 -88.5t-65 -54.5t-67.5 -28.5t-55.5 -11t-29.5 -2q-69 0 -118 18t-82 40q-39 26 -65 58l97 93l16.5 -16.5t30 -23.5t46 -21.5t64.5 -9.5q23 0 41 7.5t32 20t24.5 28t17.5 32.5q17 39 23 89v150q-2 -30 -14 -52.5t-30 -39.5 t-41 -29t-46 -20q-55 -18 -123 -23h-37q-91 0 -154.5 25t-106 64.5t-66.5 87.5t-36.5 93t-15.5 82t-3 55q0 13 1 13v258q0 64 -17.5 108t-45 72.5t-59.5 43.5t-61.5 22.5t-51 8.5t-27.5 1q-48 0 -85 -11t-64.5 -29t-46 -41t-30.5 -47q-28 -56 -32 -128v-329q3 -53 23 -93 q9 -17 22 -33.5t32 -29.5t45 -21t60 -8h117v-149h-215q-68 5 -122 39q-23 15 -45 37.5t-39 55.5t-27.5 77t-10.5 103v22v486q32 61 71.5 104t81 72t82 46t75 25.5t60.5 10.5t39 2h9q78 -2 137.5 -20t103.5 -46t75 -63t51 -72t31 -73t16.5 -66t6.5 -50.5t1 -26.5v-258 q0 -68 17.5 -114.5t44 -76.5t58 -46t60.5 -23.5t50.5 -9t27.5 -1.5q62 0 105 19t71.5 47.5t44 62.5t23 64t9 52t1.5 26v667h159z" />
</font>
</defs></svg> 